%!PS-Adobe-2.0 EPSF-2.0
%%BoundingBox:  0 0 567 384
%%Title: figs/taccall_kk.eps: 
%%Creator: ROOT Version 6.02/03
%%CreationDate: Fri Jun  9 14:59:32 2017
%%EndComments
%%BeginProlog
80 dict begin
/s {stroke} def /l {lineto} def /m {moveto} def /t {translate} def
/r {rotate} def /rl {roll}  def /R {repeat} def
/d {rlineto} def /rm {rmoveto} def /gr {grestore} def /f {eofill} def
/c {setrgbcolor} def /black {0 setgray} def /sd {setdash} def
/cl {closepath} def /sf {scalefont setfont} def /lw {setlinewidth} def
/box {m dup 0 exch d exch 0 d 0 exch neg d cl} def
/NC{systemdict begin initclip end}def/C{NC box clip newpath}def
/bl {box s} def /bf {box f} def /Y { 0 exch d} def /X { 0 d} def 
/K {{pop pop 0 moveto} exch kshow} bind def
/ita {/ang 15 def gsave [1 0 ang dup sin exch cos div 1 0 0] concat} def 
/mp {newpath /y exch def /x exch def} def
/side {[w .77 mul w .23 mul] .385 w mul sd w 0 l currentpoint t -144 r} def
/mr {mp x y w2 0 360 arc} def /m24 {mr s} def /m20 {mr f} def
/mb {mp x y w2 add m w2 neg 0 d 0 w neg d w 0 d 0 w d cl} def
/mt {mp x y w2 add m w2 neg w neg d w 0 d cl} def
/m21 {mb f} def /m25 {mb s} def /m22 {mt f} def /m26{mt s} def
/m23 {mp x y w2 sub m w2 w d w neg 0 d cl f} def
/m27 {mp x y w2 add m w3 neg w2 neg d w3 w2 neg d w3 w2 d cl s} def
/m28 {mp x w2 sub y w2 sub w3 add m w3 0 d  0 w3 neg d w3 0 d 0 w3 d w3 0 d  0 w3 d w3 neg 0 d 0 w3 d w3 neg 0 d 0 w3 neg d w3 neg 0 d cl s } def
/m29 {mp gsave x w2 sub y w2 add w3 sub m currentpoint t 4 {side} repeat cl fill gr} def
/m30 {mp gsave x w2 sub y w2 add w3 sub m currentpoint t 4 {side} repeat cl s gr} def
/m31 {mp x y w2 sub m 0 w d x w2 sub y m w 0 d x w2 sub y w2 add m w w neg d x w2 sub y w2 sub m w w d s} def
/m32 {mp x y w2 sub m w2 w d w neg 0 d cl s} def
/m33 {mp x y w2 add m w3 neg w2 neg d w3 w2 neg d w3 w2 d cl f} def
/m34 {mp x w2 sub y w2 sub w3 add m w3 0 d  0 w3 neg d w3 0 d 0 w3 d w3 0 d  0 w3 d w3 neg 0 d 0 w3 d w3 neg 0 d 0 w3 neg d w3 neg 0 d cl f } def
/m2 {mp x y w2 sub m 0 w d x w2 sub y m w 0 d s} def
/m5 {mp x w2 sub y w2 sub m w w d x w2 sub y w2 add m w w neg d s} def
/reEncode {exch findfont dup length dict begin {1 index /FID eq  {pop pop} {def} ifelse } forall /Encoding exch def currentdict end dup /FontName get exch definefont pop } def [/Times-Bold /Times-Italic /Times-BoldItalic /Helvetica /Helvetica-Oblique
 /Helvetica-Bold /Helvetica-BoldOblique /Courier /Courier-Oblique /Courier-Bold /Courier-BoldOblique /Times-Roman /AvantGarde-Book /AvantGarde-BookOblique /AvantGarde-Demi /AvantGarde-DemiOblique /Bookman-Demi /Bookman-DemiItalic /Bookman-Light
 /Bookman-LightItalic /Helvetica-Narrow /Helvetica-Narrow-Bold /Helvetica-Narrow-BoldOblique /Helvetica-Narrow-Oblique /NewCenturySchlbk-Roman /NewCenturySchlbk-Bold /NewCenturySchlbk-BoldItalic /NewCenturySchlbk-Italic /Palatino-Bold
 /Palatino-BoldItalic /Palatino-Italic /Palatino-Roman ] {ISOLatin1Encoding reEncode } forall
%%EndProlog
%%BeginSetup
%%EndSetup
newpath  gsave  .25 .25 scale  gsave  0 0 t black[  ] 0 sd 6 lw 1 1 1 c 2268 1538 0 0 bf black 1 1 1 c 1837 1215 317 246 bf black 1837 1215 317 246 bl 1 1 1 c 1837 1215 317 246 bf black 1837 1215 317 246 bl 1 1 1 c black 3 lw /w 26 def /w2 {w 2 div}
 def /w3 {w 3 div} def 324 618 m20 6 lw 3 lw 336 736 m20 6 lw 3 lw 349 767 m20 6 lw 3 lw 361 784 m20 6 lw 3 lw 373 788 m20 6 lw 3 lw 386 795 m20 6 lw 3 lw 398 799 m20 6 lw 3 lw 411 803 m20 6 lw 3 lw 423 803 m20 6 lw 3 lw 435 803 m20 6 lw 3 lw 448 803
 m20 6 lw 3 lw 460 802 m20 6 lw 3 lw 473 807 m20 6 lw 3 lw 485 804 m20 6 lw 3 lw 497 807 m20 6 lw 3 lw 510 805 m20 6 lw 3 lw 522 811 m20 6 lw 3 lw 535 810 m20 6 lw 3 lw 547 804 m20 6 lw 3 lw 559 815 m20 6 lw 3 lw 572 818 m20 6 lw 3 lw 584 815 m20 6
 lw 3 lw 597 815 m20 6 lw 3 lw 609 818 m20 6 lw 3 lw 622 820 m20 6 lw 3 lw 634 819 m20 6 lw 3 lw 646 821 m20 6 lw 3 lw 659 817 m20 6 lw 3 lw 671 822 m20 6 lw 3 lw 684 829 m20 6 lw 3 lw 696 820 m20 6 lw 3 lw 708 824 m20 6 lw 3 lw 721 822 m20 6 lw 3 lw
 733 827 m20 6 lw 3 lw 746 833 m20 6 lw 3 lw 758 835 m20 6 lw 3 lw 770 821 m20 6 lw 3 lw 783 820 m20 6 lw 3 lw 795 823 m20 6 lw 3 lw 808 824 m20 6 lw 3 lw 820 826 m20 6 lw 3 lw 833 823 m20 6 lw 3 lw 845 817 m20 6 lw 3 lw 857 832 m20 6 lw 3 lw 870 831
 m20 6 lw 3 lw 882 820 m20 6 lw 3 lw 895 818 m20 6 lw 3 lw 907 834 m20 6 lw 3 lw 919 834 m20 6 lw 3 lw 932 830 m20 6 lw 3 lw 944 833 m20 6 lw 3 lw 957 825 m20 6 lw 3 lw 969 818 m20 6 lw 3 lw 981 811 m20 6 lw 3 lw 994 816 m20 6 lw 3 lw 1006 829 m20 6
 lw 3 lw 1019 801 m20 6 lw 3 lw 1031 825 m20 6 lw 3 lw 1044 823 m20 6 lw 3 lw 1056 826 m20 6 lw 3 lw 1068 818 m20 6 lw 3 lw 1081 826 m20 6 lw 3 lw 1093 791 m20 6 lw 1106 827 m s 1106 853 m 1 Y s 3 lw 1106 840 m20 6 lw 1118 797 m 1 Y s 1118 824 m s 3
 lw 1118 811 m20 6 lw 1130 803 m 1 Y s 1130 830 m 1 Y s 3 lw 1130 817 m20 6 lw 1143 809 m 2 Y s 1143 837 m 1 Y s 3 lw 1143 824 m20 6 lw 1155 784 m 2 Y s 1155 812 m 1 Y s 3 lw 1155 799 m20 6 lw 1168 816 m 2 Y s 1168 845 m 2 Y s 3 lw 1168 831 m20 6 lw
 1180 789 m 3 Y s 1180 818 m 3 Y s 3 lw 1180 805 m20 6 lw 1192 797 m 4 Y s 1192 827 m 3 Y s 3 lw 1192 814 m20 6 lw 1205 800 m 4 Y s 1205 830 m 4 Y s 3 lw 1205 817 m20 6 lw 1217 797 m 5 Y s 1217 828 m 5 Y s 3 lw 1217 815 m20 6 lw 1230 828 m 6 Y s 1230
 860 m 6 Y s 3 lw 1230 847 m20 6 lw 1242 794 m 6 Y s 1242 826 m 6 Y s 3 lw 1242 813 m20 6 lw 1255 801 m 6 Y s 1255 833 m 7 Y s 3 lw 1255 820 m20 6 lw 1267 805 m 8 Y s 1267 839 m 7 Y s 3 lw 1267 826 m20 6 lw 1279 755 m 7 Y s 1279 788 m 6 Y s 3 lw 1279
 775 m20 6 lw 1292 846 m 11 Y s 1292 883 m 10 Y s 3 lw 1292 870 m20 6 lw 1304 808 m 10 Y s 1304 844 m 10 Y s 3 lw 1304 831 m20 6 lw 1317 776 m 10 Y s 1317 812 m 10 Y s 3 lw 1317 799 m20 6 lw 1329 830 m 12 Y s 1329 868 m 12 Y s 3 lw 1329 855 m20 6 lw
 1341 755 m 11 Y s 1341 792 m 10 Y s 3 lw 1341 779 m20 6 lw 1354 774 m 13 Y s 1354 813 m 12 Y s 3 lw 1354 800 m20 6 lw 1366 762 m 13 Y s 1366 801 m 13 Y s 3 lw 1366 788 m20 6 lw 1379 797 m 14 Y s 1379 837 m 15 Y s 3 lw 1379 824 m20 6 lw 1391 774 m 15
 Y s 1391 815 m 14 Y s 3 lw 1391 802 m20 6 lw 1403 767 m 15 Y s 1403 808 m 15 Y s 3 lw 1403 795 m20 6 lw 1416 742 m 16 Y s 1416 784 m 15 Y s 3 lw 1416 771 m20 6 lw 1428 751 m 17 Y s 1428 794 m 17 Y s 3 lw 1428 781 m20 6 lw 1441 746 m 17 Y s 1441 789
 m 17 Y s 3 lw 1441 776 m20 6 lw 1453 795 m 21 Y s 1453 842 m 22 Y s 3 lw 1453 829 m20 6 lw 1466 715 m 19 Y s 1466 760 m 19 Y s 3 lw 1466 747 m20 6 lw 1478 779 m 23 Y s 1478 828 m 22 Y s 3 lw 1478 815 m20 6 lw 1490 766 m 23 Y s 1490 815 m 23 Y s 3 lw
 1490 802 m20 6 lw 1503 711 m 21 Y s 1503 758 m 22 Y s 3 lw 1503 745 m20 6 lw 1515 700 m 22 Y s 1515 748 m 22 Y s 3 lw 1515 735 m20 6 lw 1528 758 m 27 Y s 1528 811 m 28 Y s 3 lw 1528 798 m20 6 lw 1540 731 m 28 Y s 1540 785 m 27 Y s 3 lw 1540 772 m20
 6 lw 1552 842 m 36 Y s 1552 904 m 35 Y s 3 lw 1552 891 m20 6 lw 1565 776 m 34 Y s 1565 836 m 34 Y s 3 lw 1565 823 m20 6 lw 1577 714 m 32 Y s 1577 772 m 31 Y s 3 lw 1577 759 m20 6 lw 1590 739 m 35 Y s 1590 800 m 35 Y s 3 lw 1590 787 m20 6 lw 1602 787
 m 40 Y s 1602 853 m 39 Y s 3 lw 1602 840 m20 6 lw 1614 704 m 36 Y s 1614 766 m 35 Y s 3 lw 1614 753 m20 6 lw 1627 738 m 38 Y s 1627 802 m 38 Y s 3 lw 1627 789 m20 6 lw 1639 760 m 42 Y s 1639 828 m 42 Y s 3 lw 1639 815 m20 6 lw 1652 801 m 47 Y s 1652
 874 m 46 Y s 3 lw 1652 861 m20 6 lw 1664 655 m 37 Y s 1664 718 m 38 Y s 3 lw 1664 705 m20 6 lw 1677 755 m 52 Y s 1677 833 m 52 Y s 3 lw 1677 820 m20 6 lw 1689 518 m 29 Y s 1689 573 m 30 Y s 3 lw 1689 560 m20 6 lw 1701 740 m 50 Y s 1701 816 m 50 Y s
 3 lw 1701 803 m20 6 lw 1714 690 m 51 Y s 1714 767 m 51 Y s 3 lw 1714 754 m20 6 lw 1726 703 m 55 Y s 1726 784 m 55 Y s 3 lw 1726 771 m20 6 lw 1739 606 m 45 Y s 1739 677 m 45 Y s 3 lw 1739 664 m20 6 lw 1751 812 m 66 Y s 1751 904 m 67 Y s 3 lw 1751 891
 m20 6 lw 1763 693 m 61 Y s 1763 780 m 61 Y s 3 lw 1763 767 m20 6 lw 1776 819 m 75 Y s 1776 920 m 76 Y s 3 lw 1776 907 m20 6 lw 1788 560 m 47 Y s 1788 633 m 47 Y s 3 lw 1788 620 m20 6 lw 1801 617 m 60 Y s 1801 703 m 59 Y s 3 lw 1801 690 m20 6 lw 1813
 793 m 90 Y s 1813 909 m 89 Y s 3 lw 1813 896 m20 6 lw 1825 663 m 69 Y s 1825 758 m 69 Y s 3 lw 1825 745 m20 6 lw 1838 665 m 70 Y s 1838 761 m 70 Y s 3 lw 1838 748 m20 6 lw 1850 797 m 95 Y s 1850 918 m 95 Y s 3 lw 1850 905 m20 6 lw 1863 647 m 80 Y s
 1863 753 m 80 Y s 3 lw 1863 740 m20 6 lw 1875 622 m 78 Y s 1875 726 m 79 Y s 3 lw 1875 713 m20 6 lw 1887 588 m 76 Y s 1887 690 m 76 Y s 3 lw 1887 677 m20 6 lw 1900 433 m 53 Y s 1900 512 m 52 Y s 3 lw 1900 499 m20 6 lw 1912 578 m 91 Y s 1912 695 m 91
 Y s 3 lw 1912 682 m20 6 lw 1925 655 m 98 Y s 1925 779 m 99 Y s 3 lw 1925 766 m20 6 lw 1937 746 m 113 Y s 1937 885 m 114 Y s 3 lw 1937 872 m20 6 lw 1950 652 m 114 Y s 1950 792 m 114 Y s 3 lw 1950 779 m20 6 lw 1962 473 m 75 Y s 1962 574 m 75 Y s 3 lw
 1962 561 m20 6 lw 1974 667 m 132 Y s 1974 825 m 133 Y s 3 lw 1974 812 m20 6 lw 1987 454 m 76 Y s 1987 556 m 76 Y s 3 lw 1987 543 m20 6 lw 1999 517 m 100 Y s 1999 643 m 100 Y s 3 lw 1999 630 m20 6 lw 2012 712 m 145 Y s 2012 883 m 146 Y s 3 lw 2012
 870 m20 6 lw 2024 755 m 147 Y s 2024 928 m 147 Y s 3 lw 2024 915 m20 6 lw 2036 717 m 153 Y s 2036 896 m 153 Y s 3 lw 2036 883 m20 6 lw 2049 986 m 248 Y s 2049 1260 m 201 Y s 3 lw 2049 1247 m20 6 lw 2061 581 m 150 Y s 2061 757 m 149 Y s 3 lw 2061 744
 m20 6 lw 2074 689 m 213 Y s 2074 928 m 213 Y s 3 lw 2074 915 m20 6 lw 2086 775 m 223 Y s 2086 1024 m 223 Y s 3 lw 2086 1011 m20 6 lw 2098 641 m 172 Y s 2098 839 m 172 Y s 3 lw 2098 826 m20 6 lw 2111 361 m 90 Y s 2111 477 m 90 Y s 3 lw 2111 464 m20 6
 lw 2123 558 m 177 Y s 2123 761 m 176 Y s 3 lw 2123 748 m20 6 lw 2136 504 m 175 Y s 2136 705 m 175 Y s 3 lw 2136 692 m20 6 lw 2148 693 m 203 Y s 2148 922 m 202 Y s 3 lw 2148 909 m20 6 lw 0 0 1 c black 0 0 1 c 327 662 m 18 101 d 18 22 d 19 8 d 18 4 d
 19 3 d 18 3 d 18 2 d 19 2 d 18 1 d 18 2 d 19 1 d 18 2 d 18 1 d 19 1 d 18 2 d 19 1 d 18 1 d 18 1 d 19 1 d 18 X 18 1 d 19 1 d 18 X 19 1 d 18 X 18 1 d 166 X 18 -1 d 18 X 19 -1 d 18 X 18 -1 d 19 -1 d 18 X 19 -1 d 18 -1 d 18 -1 d 19 -1 d 18 -1 d 18 -2 d
 19 -1 d s 1227 813 m 18 -1 d 18 -2 d 19 -1 d 18 -2 d 19 -2 d 18 -1 d 18 -2 d 19 -2 d 18 -2 d 18 -2 d 19 -2 d 18 -2 d 19 -2 d 18 -3 d 18 -2 d 19 -3 d 18 -2 d 18 -3 d 19 -2 d 18 -3 d 18 -3 d 19 -3 d 18 -3 d 19 -3 d 18 -3 d 18 -3 d 19 -3 d 18 -4 d 18
 -3 d 19 -4 d 18 -3 d 19 -4 d 18 -3 d 18 -4 d 19 -4 d 18 -4 d 18 -4 d 19 -4 d 18 -4 d 18 -4 d 19 -5 d 18 -4 d 19 -4 d 18 -5 d 18 -4 d 19 -5 d 18 -5 d 18 -4 d 19 -5 d s 2127 661 m 18 -5 d s black 317 246 m 1837 X s
 gsave  2268 1538 0 0 C 1495.52 52.1314 t 0 r /Times-Roman findfont 104.263 sf 0 0 m (Decay time [ps]) show NC gr  913 283 m -37 Y s 1037 265 m -19 Y s 1161 265 m -19 Y s 1286 265 m -19 Y s 1410 265 m -19 Y s 1534 283 m -37 Y s 1658 265 m -19 Y s
 1782 265 m -19 Y s 1906 265 m -19 Y s 2030 265 m -19 Y s 2154 283 m -37 Y s 913 283 m -37 Y s 789 265 m -19 Y s 665 265 m -19 Y s 541 265 m -19 Y s 417 265 m -19 Y s
 gsave  2268 1538 0 0 C 892.75 159.652 t 0 r /Times-Roman findfont 84.7136 sf 0 0 m (5) show NC gr 
 gsave  2268 1538 0 0 C 1489 159.652 t 0 r /Times-Roman findfont 84.7136 sf 0 0 m (10) show NC gr 
 gsave  2268 1538 0 0 C 2111.32 159.652 t 0 r /Times-Roman findfont 84.7136 sf 0 0 m (15) show NC gr  317 1461 m 1837 X s 913 1424 m 37 Y s 1037 1442 m 19 Y s 1161 1442 m 19 Y s 1286 1442 m 19 Y s 1410 1442 m 19 Y s 1534 1424 m 37 Y s 1658 1442 m 19
 Y s 1782 1442 m 19 Y s 1906 1442 m 19 Y s 2030 1442 m 19 Y s 2154 1424 m 37 Y s 913 1424 m 37 Y s 789 1442 m 19 Y s 665 1442 m 19 Y s 541 1442 m 19 Y s 417 1442 m 19 Y s 317 246 m 1215 Y s
 gsave  2268 1538 0 0 C 94.4882 785.229 t 90 r /Times-Roman findfont 104.263 sf 0 0 m (Efficiency \(a.u.\)) show NC gr  371 246 m -54 X s 344 274 m -27 X s 344 301 m -27 X s 344 329 m -27 X s 371 357 m -54 X s 344 384 m -27 X s 344 412 m -27 X s 344
 439 m -27 X s 371 467 m -54 X s 344 495 m -27 X s 344 522 m -27 X s 344 550 m -27 X s 371 577 m -54 X s 344 605 m -27 X s 344 633 m -27 X s 344 660 m -27 X s 371 688 m -54 X s 344 715 m -27 X s 344 743 m -27 X s 344 771 m -27 X s 371 798 m -54 X s
 344 826 m -27 X s 344 854 m -27 X s 344 881 m -27 X s 371 909 m -54 X s 344 936 m -27 X s 344 964 m -27 X s 344 992 m -27 X s 371 1019 m -54 X s 344 1047 m -27 X s 344 1074 m -27 X s 344 1102 m -27 X s 371 1130 m -54 X s 344 1157 m -27 X s 344 1185
 m -27 X s 344 1212 m -27 X s 371 1240 m -54 X s 344 1268 m -27 X s 344 1295 m -27 X s 344 1323 m -27 X s 371 1351 m -54 X s 344 1378 m -27 X s 344 1406 m -27 X s 344 1433 m -27 X s 371 1461 m -54 X s
 gsave  2268 1538 0 0 C 250.882 218.3 t 0 r /Times-Roman findfont 84.7136 sf 0 0 m (0) show NC gr 
 gsave  2268 1538 0 0 C 188.976 329.08 t 0 r /Times-Roman findfont 84.7136 sf 0 0 m (0.2) show NC gr 
 gsave  2268 1538 0 0 C 188.976 439.859 t 0 r /Times-Roman findfont 84.7136 sf 0 0 m (0.4) show NC gr 
 gsave  2268 1538 0 0 C 188.976 550.638 t 0 r /Times-Roman findfont 84.7136 sf 0 0 m (0.6) show NC gr 
 gsave  2268 1538 0 0 C 188.976 661.417 t 0 r /Times-Roman findfont 84.7136 sf 0 0 m (0.8) show NC gr 
 gsave  2268 1538 0 0 C 257.399 768.938 t 0 r /Times-Roman findfont 84.7136 sf 0 0 m (1) show NC gr 
 gsave  2268 1538 0 0 C 188.976 879.718 t 0 r /Times-Roman findfont 84.7136 sf 0 0 m (1.2) show NC gr 
 gsave  2268 1538 0 0 C 188.976 990.497 t 0 r /Times-Roman findfont 84.7136 sf 0 0 m (1.4) show NC gr 
 gsave  2268 1538 0 0 C 188.976 1101.28 t 0 r /Times-Roman findfont 84.7136 sf 0 0 m (1.6) show NC gr 
 gsave  2268 1538 0 0 C 188.976 1212.06 t 0 r /Times-Roman findfont 84.7136 sf 0 0 m (1.8) show NC gr 
 gsave  2268 1538 0 0 C 250.882 1319.58 t 0 r /Times-Roman findfont 84.7136 sf 0 0 m (2) show NC gr 
 gsave  2268 1538 0 0 C 188.976 1433.61 t 0 r /Times-Roman findfont 84.7136 sf 0 0 m (2.2) show NC gr  2154 246 m 1215 Y s 2101 246 m 53 X s 2127 274 m 27 X s 2127 301 m 27 X s 2127 329 m 27 X s 2101 357 m 53 X s 2127 384 m 27 X s 2127 412 m 27 X s
 2127 439 m 27 X s 2101 467 m 53 X s 2127 495 m 27 X s 2127 522 m 27 X s 2127 550 m 27 X s 2101 577 m 53 X s 2127 605 m 27 X s 2127 633 m 27 X s 2127 660 m 27 X s 2101 688 m 53 X s 2127 715 m 27 X s 2127 743 m 27 X s 2127 771 m 27 X s 2101 798 m 53 X
 s 2127 826 m 27 X s 2127 854 m 27 X s 2127 881 m 27 X s 2101 909 m 53 X s 2127 936 m 27 X s 2127 964 m 27 X s 2127 992 m 27 X s 2101 1019 m 53 X s 2127 1047 m 27 X s 2127 1074 m 27 X s 2127 1102 m 27 X s 2101 1130 m 53 X s 2127 1157 m 27 X s 2127
 1185 m 27 X s 2127 1212 m 27 X s 2101 1240 m 53 X s 2127 1268 m 27 X s 2127 1295 m 27 X s 2127 1323 m 27 X s 2101 1351 m 53 X s 2127 1378 m 27 X s 2127 1406 m 27 X s 2127 1433 m 27 X s 2101 1461 m 53 X s
 gr  gr showpage
end
%%EOF
