1
1.02598
1.02475
6.39542e-05
0.00270859
-0.000379249
1.0183
-0.00310307
0.000148177
-0.0507677
1
1.0191
1.01886
-0.000680075
0.0015554
-7.17866e-05
1.0068
-0.000665105
-4.74041e-05
-0.0115612
1
1.06928
1.06797
0.0143626
0.00772582
0.00384455
1.04027
0.0146198
-0.00373263
-0.0272744
1
1.00953
1.01053
-0.000981723
-0.00424208
0.00358999
1.00303
-0.000651226
-0.000244598
0.0207458
