
[1mRooFit v3.60 -- Developed by Wouter Verkerke and David Kirkby[0m 
                Copyright (C) 2000-2013 NIKHEF, University of California & Stanford University
                All rights reserved, please read http://roofit.sourceforge.net/license.txt

Time(begin)  2018.2.21    10:59:31
[#1] INFO:ObjectHandling -- RooWorkspace::import(ws) importing RooBinnedPdf::tacc
[#1] INFO:ObjectHandling -- RooWorkspace::import(ws) importing RooCubicSplineFun::spline
[#1] INFO:ObjectHandling -- RooWorkspace::import(ws) importing RooRealVar::t
[#1] INFO:ObjectHandling -- RooWorkspace::import(ws) importing RooRealVar::a0
[#1] INFO:ObjectHandling -- RooWorkspace::import(ws) importing RooRealVar::a1
[#1] INFO:ObjectHandling -- RooWorkspace::import(ws) importing RooRealVar::a2
[#1] INFO:ObjectHandling -- RooWorkspace::import(ws) importing RooRealVar::a3
[#1] INFO:ObjectHandling -- RooWorkspace::import(ws) importing RooRealVar::a4
[#1] INFO:ObjectHandling -- RooWorkspace::import(ws) importing RooRealVar::a5
[#1] INFO:ObjectHandling -- RooWorkspace::import(ws) importing RooRealVar::a6
[#1] INFO:ObjectHandling -- RooWorkspace::import(ws) importing RooRealVar::a7
[#1] INFO:ObjectHandling -- RooWorkspace::import(ws) importing RooRealVar::a8
[#1] INFO:ObjectHandling -- RooWorkspace::import(ws) importing RooCategory::c
Splitrule for p.d.f tacc with state list 
 parameter a0 is split with constraint in categories (c)
 parameter a1 is split with constraint in categories (c)
 parameter a2 is split with constraint in categories (c)
 parameter a3 is split with constraint in categories (c)
 parameter a4 is split with constraint in categories (c)
 parameter a5 is split with constraint in categories (c)
 parameter a6 is split with constraint in categories (c)
 parameter a7 is split with constraint in categories (c)
 parameter a8 is split with constraint in categories (c)
[#1] INFO:ObjectHandling -- RooSimWSTool::executeBuild: list of prototype pdfs (tacc)
[#1] INFO:ObjectHandling -- RooSimWSTool::executeBuild: list of splitting categories (c)
[#1] INFO:ObjectHandling -- RooSimPdfBuilder::executeBuild: processing prototype pdf tacc
[#1] INFO:ObjectHandling -- RooSimWSTool::executeBuild: configured customizers for all prototype pdfs
[#1] INFO:ObjectHandling -- RooSimWSTool::executeBuild: Customizing prototype pdf tacc for mode 2016TrgB
[#1] INFO:ObjectHandling -- RooSimWSTool::executeBuild: Customizing prototype pdf tacc for mode 2016TrgU
[#1] INFO:ObjectHandling -- RooWorkspace::import(ws) importing RooSimultaneous::model_sim
[#1] INFO:ObjectHandling -- RooWorkspace::import(ws) importing RooBinnedPdf::tacc_2016TrgB
[#1] INFO:ObjectHandling -- RooWorkspace::import(ws) importing RooCubicSplineFun::spline_2016TrgB
[#1] INFO:ObjectHandling -- RooWorkspace::import(ws) importing RooRealVar::a0_2016TrgB
[#1] INFO:ObjectHandling -- RooWorkspace::import(ws) importing RooRealVar::a1_2016TrgB
[#1] INFO:ObjectHandling -- RooWorkspace::import(ws) importing RooRealVar::a2_2016TrgB
[#1] INFO:ObjectHandling -- RooWorkspace::import(ws) importing RooRealVar::a3_2016TrgB
[#1] INFO:ObjectHandling -- RooWorkspace::import(ws) importing RooRealVar::a4_2016TrgB
[#1] INFO:ObjectHandling -- RooWorkspace::import(ws) importing RooRealVar::a5_2016TrgB
[#1] INFO:ObjectHandling -- RooWorkspace::import(ws) importing RooRealVar::a6_2016TrgB
[#1] INFO:ObjectHandling -- RooWorkspace::import(ws) importing RooRealVar::a7_2016TrgB
[#1] INFO:ObjectHandling -- RooWorkspace::import(ws) importing RooRealVar::a8_2016TrgB
[#1] INFO:ObjectHandling -- RooWorkspace::import(ws) importing RooBinnedPdf::tacc_2016TrgU
[#1] INFO:ObjectHandling -- RooWorkspace::import(ws) importing RooCubicSplineFun::spline_2016TrgU
[#1] INFO:ObjectHandling -- RooWorkspace::import(ws) importing RooRealVar::a0_2016TrgU
[#1] INFO:ObjectHandling -- RooWorkspace::import(ws) importing RooRealVar::a1_2016TrgU
[#1] INFO:ObjectHandling -- RooWorkspace::import(ws) importing RooRealVar::a2_2016TrgU
[#1] INFO:ObjectHandling -- RooWorkspace::import(ws) importing RooRealVar::a3_2016TrgU
[#1] INFO:ObjectHandling -- RooWorkspace::import(ws) importing RooRealVar::a4_2016TrgU
[#1] INFO:ObjectHandling -- RooWorkspace::import(ws) importing RooRealVar::a5_2016TrgU
[#1] INFO:ObjectHandling -- RooWorkspace::import(ws) importing RooRealVar::a6_2016TrgU
[#1] INFO:ObjectHandling -- RooWorkspace::import(ws) importing RooRealVar::a7_2016TrgU
[#1] INFO:ObjectHandling -- RooWorkspace::import(ws) importing RooRealVar::a8_2016TrgU

RooWorkspace(ws) ws contents

variables
---------
(a0,a0_2016TrgB,a0_2016TrgU,a1,a1_2016TrgB,a1_2016TrgU,a2,a2_2016TrgB,a2_2016TrgU,a3,a3_2016TrgB,a3_2016TrgU,a4,a4_2016TrgB,a4_2016TrgU,a5,a5_2016TrgB,a5_2016TrgU,a6,a6_2016TrgB,a6_2016TrgU,a7,a7_2016TrgB,a7_2016TrgU,a8,a8_2016TrgB,a8_2016TrgU,c,t)

p.d.f.s
-------
RooSimultaneous::model_sim[ indexCat=c 2016TrgB=tacc_2016TrgB 2016TrgU=tacc_2016TrgU ] = 1.05668
RooBinnedPdf::tacc[ _baseCatsList=() _baseVarsList=(t) _function=spline ] = 1.05668
RooBinnedPdf::tacc_2016TrgB[ _baseCatsList=() _baseVarsList=(t) _function=spline_2016TrgB ] = 1.05668
RooBinnedPdf::tacc_2016TrgU[ _baseCatsList=() _baseVarsList=(t) _function=spline_2016TrgU ] = 1.05668

functions
--------
RooCubicSplineFun::spline[ x=t coefList=(a0,a1,a2,a3,a4,a5,a6,a7,a8) ] = 1.05673
RooCubicSplineFun::spline_2016TrgB[ x=t coefList=(a0_2016TrgB,a1_2016TrgB,a2_2016TrgB,a3_2016TrgB,a4_2016TrgB,a5_2016TrgB,a6_2016TrgB,a7_2016TrgB,a8_2016TrgB) ] = 1.05673
RooCubicSplineFun::spline_2016TrgU[ x=t coefList=(a0_2016TrgU,a1_2016TrgU,a2_2016TrgU,a3_2016TrgU,a4_2016TrgU,a5_2016TrgU,a6_2016TrgU,a7_2016TrgU,a8_2016TrgU) ] = 1.05673

Csf 0 0.8569
Csf 1 0.8768
Csf 2 0.8478
Csf 3 0.8821
Csf 4 0.9406
Csf 5 0.9711
Number of Resonances 2
 TO calculate DPTermsIntegral 
AngInt 1 1.0362 1.0365 3.0801 0.0034 -7e-05 -0.00536936 0.0006 0.00121244 0.00173205  
DPTermsIntegral 5.33587 -0.000250284 -0.7776 0.132904
Number of Resonances 2
 TO calculate DPTermsIntegral 
AngInt 1 1.04054 1.03953 3.04131 -0.00025 -2e-05 -0.00381051 -0.00063 0.000450333 0.000450333  
DPTermsIntegral 5.31632 0.000211231 -0.744728 0.126453
Number of Resonances 2
 TO calculate DPTermsIntegral 
AngInt 1 1.0362 1.0365 3.0801 0.0034 -7e-05 -0.00536936 0.0006 0.00121244 0.00173205  
DPTermsIntegral 3.24306 -0.000250284 1.2855 -0.218496
Number of Resonances 2
 TO calculate DPTermsIntegral 
AngInt 1 1.04054 1.03953 3.04131 -0.00025 -2e-05 -0.00381051 -0.00063 0.000450333 0.000450333  
DPTermsIntegral 3.24987 0.000211231 1.29239 -0.220522
Number of Resonances 2
 TO calculate DPTermsIntegral 
AngInt 1 1.0362 1.0365 3.0801 0.0034 -7e-05 -0.00536936 0.0006 0.00121244 0.00173205  
DPTermsIntegral 3.08137 -0.000250284 1.44489 -0.245645
Number of Resonances 2
 TO calculate DPTermsIntegral 
AngInt 1 1.04054 1.03953 3.04131 -0.00025 -2e-05 -0.00381051 -0.00063 0.000450333 0.000450333  
DPTermsIntegral 3.09021 0.000211231 1.44978 -0.247329
Number of Resonances 2
 TO calculate DPTermsIntegral 
AngInt 1 1.0362 1.0365 3.0801 0.0034 -7e-05 -0.00536936 0.0006 0.00121244 0.00173205  
DPTermsIntegral 3.082 -0.000250284 1.44427 -0.24554
Number of Resonances 2
 TO calculate DPTermsIntegral 
AngInt 1 1.04054 1.03953 3.04131 -0.00025 -2e-05 -0.00381051 -0.00063 0.000450333 0.000450333  
DPTermsIntegral 3.09083 0.000211231 1.44916 -0.247225
Number of Resonances 2
 TO calculate DPTermsIntegral 
AngInt 1 1.0362 1.0365 3.0801 0.0034 -7e-05 -0.00536936 0.0006 0.00121244 0.00173205  
DPTermsIntegral 3.20864 -0.000250284 1.31943 -0.224275
Number of Resonances 2
 TO calculate DPTermsIntegral 
AngInt 1 1.04054 1.03953 3.04131 -0.00025 -2e-05 -0.00381051 -0.00063 0.000450333 0.000450333  
DPTermsIntegral 3.21588 0.000211231 1.32589 -0.226228
Number of Resonances 2
 TO calculate DPTermsIntegral 
AngInt 1 1.0362 1.0365 3.0801 0.0034 -7e-05 -0.00536936 0.0006 0.00121244 0.00173205  
DPTermsIntegral 3.78657 -0.000250284 0.749703 -0.127236
Number of Resonances 2
 TO calculate DPTermsIntegral 
AngInt 1 1.04054 1.03953 3.04131 -0.00025 -2e-05 -0.00381051 -0.00063 0.000450333 0.000450333  
DPTermsIntegral 3.78653 0.000211231 0.763341 -0.130411
[#1] INFO:DataHandling -- RooAbsCategory::attachToTree(tagOS) TTree branch tagOS will be interpreted as category index
[#1] INFO:DataHandling -- RooAbsCategory::attachToTree(tagSS) TTree branch tagSS will be interpreted as category index
[#1] INFO:Eval -- RooAbsReal::attachToTree(hlt1B) TTree Int_t branch hlt1B will be converted to double precision
[#1] INFO:Eval -- RooAbsReal::attachToTree(hlt1UB) TTree Int_t branch hlt1UB will be converted to double precision
DataStore dataws0 ()
  Contains 160447 entries
  Observables: 
    1)       t = 3.27322  L(0.3 - 15)  "time [ps]"
    2)     X_M = 1.00823  L(0.98 - 1.05)  "m(#pi^{+}#pi^{-}) [GeV]"
    3)    cosK = 0.90894  L(-1 - 1)  "cos #theta_{#pi^{+}#pi^{-}}"
    4)    cosl = -0.736781  L(-1 - 1)  "cos #theta_{J/#psi}"
    5)     phi = -1.31593  L(-3.14159 - 3.14159)  "#chi"
    6)   tagOS = BS(idx = 1)
  "tagOS"
    7)  wtagOS = 0.338156  L(0 - 0.5)  "wtag"
    8)   tagSS = BS(idx = 1)
  "tagSS"
    9)  wtagSS = 0.320386  L(0 - 0.5)  "wtag"
   10)      et = 0.0284316  L(0 - 0.07)  "time [ps]"
   11)   hlt1B = 0 C  L(-INF - +INF)  ""
   12)  hlt1UB = 1 C  L(-INF - +INF)  ""
  Dataset variable "nsig_sw" is interpreted as the event weight
[#1] INFO:DataHandling -- RooDataHist::adjustBinning(etsig0): fit range of variable et expanded to nearest bin boundaries: [0,0.07] --> [0,0.07]
 SW2 0 2145 369.889 0.711186
 SW2 1 3296 1970.13 0.898788
 SW2 2 8044 6769.45 0.964555
 SW2 3 6571 5414.24 0.960287
 SW2 4 3943 2310.34 0.900427
 SW2 5 4817 1317.04 0.81321
[#1] INFO:DataHandling -- RooAbsCategory::attachToTree(tagOS) TTree branch tagOS will be interpreted as category index
[#1] INFO:DataHandling -- RooAbsCategory::attachToTree(tagSS) TTree branch tagSS will be interpreted as category index
[#1] INFO:Eval -- RooAbsReal::attachToTree(hlt1B) TTree Int_t branch hlt1B will be converted to double precision
[#1] INFO:Eval -- RooAbsReal::attachToTree(hlt1UB) TTree Int_t branch hlt1UB will be converted to double precision
DataStore dataws1 ()
  Contains 160447 entries
  Observables: 
    1)       t = 3.27322  L(0.3 - 15)  "time [ps]"
    2)     X_M = 1.00823  L(0.98 - 1.05)  "m(#pi^{+}#pi^{-}) [GeV]"
    3)    cosK = 0.90894  L(-1 - 1)  "cos #theta_{#pi^{+}#pi^{-}}"
    4)    cosl = -0.736781  L(-1 - 1)  "cos #theta_{J/#psi}"
    5)     phi = -1.31593  L(-3.14159 - 3.14159)  "#chi"
    6)   tagOS = BS(idx = 1)
  "tagOS"
    7)  wtagOS = 0.338156  L(0 - 0.5)  "wtag"
    8)   tagSS = BS(idx = 1)
  "tagSS"
    9)  wtagSS = 0.320386  L(0 - 0.5)  "wtag"
   10)      et = 0.0284316  L(0 - 0.07)  "time [ps]"
   11)   hlt1B = 0 C  L(-INF - +INF)  ""
   12)  hlt1UB = 1 C  L(-INF - +INF)  ""
  Dataset variable "nsig_sw" is interpreted as the event weight
[#1] INFO:DataHandling -- RooDataHist::adjustBinning(etsig1): fit range of variable et expanded to nearest bin boundaries: [0,0.07] --> [0,0.07]
 SW2 6 11014 1648.5 0.679835
 SW2 7 15079 8232.77 0.880345
 SW2 8 34980 28163.4 0.958694
 SW2 9 28792 22625.8 0.953574
 SW2 10 18028 9937.4 0.890161
 SW2 11 23738 5702.32 0.781795
++++++++++++++++++++++++++++++++++++++++++++++++++++++++++++++
Requested integration over these variables: 
  1) RooRealVar::    X_M = 1.015
  2) RooRealVar::   cosK = 0
  3) RooRealVar::   cosl = 0
  4) RooRealVar::    phi = 0
  5) RooCategory::  tagOS = NTag(idx = 0)

  6) RooCategory::  tagSS = NTag(idx = 0)

  7) RooRealVar:: wtagOS = 0.25
  8) RooRealVar:: wtagSS = 0.25
++++++++++++++++++++++++++++++++++++++++++++++++++++++++++++++
++++++++++++++++++++++++++++++++++++++++++++++++++++++++++++++
Requested integration over these variables: 
  1) RooRealVar::    X_M = 1.015
  2) RooRealVar::   cosK = 0
  3) RooRealVar::   cosl = 0
  4) RooRealVar::    phi = 0
  5) RooCategory::  tagOS = NTag(idx = 0)

  6) RooCategory::  tagSS = NTag(idx = 0)

  7) RooRealVar:: wtagOS = 0.25
  8) RooRealVar:: wtagSS = 0.25
++++++++++++++++++++++++++++++++++++++++++++++++++++++++++++++
++++++++++++++++++++++++++++++++++++++++++++++++++++++++++++++
Requested integration over these variables: 
  1) RooRealVar::    X_M = 1.015
  2) RooRealVar::   cosK = 0
  3) RooRealVar::   cosl = 0
  4) RooRealVar::    phi = 0
  5) RooCategory::  tagOS = NTag(idx = 0)

  6) RooCategory::  tagSS = NTag(idx = 0)

  7) RooRealVar:: wtagOS = 0.25
  8) RooRealVar:: wtagSS = 0.25
++++++++++++++++++++++++++++++++++++++++++++++++++++++++++++++
++++++++++++++++++++++++++++++++++++++++++++++++++++++++++++++
Requested integration over these variables: 
  1) RooRealVar::    X_M = 1.015
  2) RooRealVar::   cosK = 0
  3) RooRealVar::   cosl = 0
  4) RooRealVar::    phi = 0
  5) RooCategory::  tagOS = NTag(idx = 0)

  6) RooCategory::  tagSS = NTag(idx = 0)

  7) RooRealVar:: wtagOS = 0.25
  8) RooRealVar:: wtagSS = 0.25
++++++++++++++++++++++++++++++++++++++++++++++++++++++++++++++
nll {0,0}    -532.26 
++++++++++++++++++++++++++++++++++++++++++++++++++++++++++++++
Requested integration over these variables: 
  1) RooRealVar::    X_M = 1.015
  2) RooRealVar::   cosK = 0
  3) RooRealVar::   cosl = 0
  4) RooRealVar::    phi = 0
  5) RooCategory::  tagOS = NTag(idx = 0)

  6) RooCategory::  tagSS = NTag(idx = 0)

  7) RooRealVar:: wtagOS = 0.25
  8) RooRealVar:: wtagSS = 0.25
++++++++++++++++++++++++++++++++++++++++++++++++++++++++++++++
++++++++++++++++++++++++++++++++++++++++++++++++++++++++++++++
Requested integration over these variables: 
  1) RooRealVar::    X_M = 1.015
  2) RooRealVar::   cosK = 0
  3) RooRealVar::   cosl = 0
  4) RooRealVar::    phi = 0
  5) RooCategory::  tagOS = NTag(idx = 0)

  6) RooCategory::  tagSS = NTag(idx = 0)

  7) RooRealVar:: wtagOS = 0.25
  8) RooRealVar:: wtagSS = 0.25
++++++++++++++++++++++++++++++++++++++++++++++++++++++++++++++
++++++++++++++++++++++++++++++++++++++++++++++++++++++++++++++
Requested integration over these variables: 
  1) RooRealVar::    X_M = 1.015
  2) RooRealVar::   cosK = 0
  3) RooRealVar::   cosl = 0
  4) RooRealVar::    phi = 0
  5) RooCategory::  tagOS = NTag(idx = 0)

  6) RooCategory::  tagSS = NTag(idx = 0)

  7) RooRealVar:: wtagOS = 0.25
  8) RooRealVar:: wtagSS = 0.25
++++++++++++++++++++++++++++++++++++++++++++++++++++++++++++++
++++++++++++++++++++++++++++++++++++++++++++++++++++++++++++++
Requested integration over these variables: 
  1) RooRealVar::    X_M = 1.015
  2) RooRealVar::   cosK = 0
  3) RooRealVar::   cosl = 0
  4) RooRealVar::    phi = 0
  5) RooCategory::  tagOS = NTag(idx = 0)

  6) RooCategory::  tagSS = NTag(idx = 0)

  7) RooRealVar:: wtagOS = 0.25
  8) RooRealVar:: wtagSS = 0.25
++++++++++++++++++++++++++++++++++++++++++++++++++++++++++++++
nll {0,1}   -3142.52 
++++++++++++++++++++++++++++++++++++++++++++++++++++++++++++++
Requested integration over these variables: 
  1) RooRealVar::    X_M = 1.015
  2) RooRealVar::   cosK = 0
  3) RooRealVar::   cosl = 0
  4) RooRealVar::    phi = 0
  5) RooCategory::  tagOS = NTag(idx = 0)

  6) RooCategory::  tagSS = NTag(idx = 0)

  7) RooRealVar:: wtagOS = 0.25
  8) RooRealVar:: wtagSS = 0.25
++++++++++++++++++++++++++++++++++++++++++++++++++++++++++++++
++++++++++++++++++++++++++++++++++++++++++++++++++++++++++++++
Requested integration over these variables: 
  1) RooRealVar::    X_M = 1.015
  2) RooRealVar::   cosK = 0
  3) RooRealVar::   cosl = 0
  4) RooRealVar::    phi = 0
  5) RooCategory::  tagOS = NTag(idx = 0)

  6) RooCategory::  tagSS = NTag(idx = 0)

  7) RooRealVar:: wtagOS = 0.25
  8) RooRealVar:: wtagSS = 0.25
++++++++++++++++++++++++++++++++++++++++++++++++++++++++++++++
++++++++++++++++++++++++++++++++++++++++++++++++++++++++++++++
Requested integration over these variables: 
  1) RooRealVar::    X_M = 1.015
  2) RooRealVar::   cosK = 0
  3) RooRealVar::   cosl = 0
  4) RooRealVar::    phi = 0
  5) RooCategory::  tagOS = NTag(idx = 0)

  6) RooCategory::  tagSS = NTag(idx = 0)

  7) RooRealVar:: wtagOS = 0.25
  8) RooRealVar:: wtagSS = 0.25
++++++++++++++++++++++++++++++++++++++++++++++++++++++++++++++
++++++++++++++++++++++++++++++++++++++++++++++++++++++++++++++
Requested integration over these variables: 
  1) RooRealVar::    X_M = 1.015
  2) RooRealVar::   cosK = 0
  3) RooRealVar::   cosl = 0
  4) RooRealVar::    phi = 0
  5) RooCategory::  tagOS = NTag(idx = 0)

  6) RooCategory::  tagSS = NTag(idx = 0)

  7) RooRealVar:: wtagOS = 0.25
  8) RooRealVar:: wtagSS = 0.25
++++++++++++++++++++++++++++++++++++++++++++++++++++++++++++++
nll {0,2}  -10669.51 
++++++++++++++++++++++++++++++++++++++++++++++++++++++++++++++
Requested integration over these variables: 
  1) RooRealVar::    X_M = 1.015
  2) RooRealVar::   cosK = 0
  3) RooRealVar::   cosl = 0
  4) RooRealVar::    phi = 0
  5) RooCategory::  tagOS = NTag(idx = 0)

  6) RooCategory::  tagSS = NTag(idx = 0)

  7) RooRealVar:: wtagOS = 0.25
  8) RooRealVar:: wtagSS = 0.25
++++++++++++++++++++++++++++++++++++++++++++++++++++++++++++++
++++++++++++++++++++++++++++++++++++++++++++++++++++++++++++++
Requested integration over these variables: 
  1) RooRealVar::    X_M = 1.015
  2) RooRealVar::   cosK = 0
  3) RooRealVar::   cosl = 0
  4) RooRealVar::    phi = 0
  5) RooCategory::  tagOS = NTag(idx = 0)

  6) RooCategory::  tagSS = NTag(idx = 0)

  7) RooRealVar:: wtagOS = 0.25
  8) RooRealVar:: wtagSS = 0.25
++++++++++++++++++++++++++++++++++++++++++++++++++++++++++++++
++++++++++++++++++++++++++++++++++++++++++++++++++++++++++++++
Requested integration over these variables: 
  1) RooRealVar::    X_M = 1.015
  2) RooRealVar::   cosK = 0
  3) RooRealVar::   cosl = 0
  4) RooRealVar::    phi = 0
  5) RooCategory::  tagOS = NTag(idx = 0)

  6) RooCategory::  tagSS = NTag(idx = 0)

  7) RooRealVar:: wtagOS = 0.25
  8) RooRealVar:: wtagSS = 0.25
++++++++++++++++++++++++++++++++++++++++++++++++++++++++++++++
++++++++++++++++++++++++++++++++++++++++++++++++++++++++++++++
Requested integration over these variables: 
  1) RooRealVar::    X_M = 1.015
  2) RooRealVar::   cosK = 0
  3) RooRealVar::   cosl = 0
  4) RooRealVar::    phi = 0
  5) RooCategory::  tagOS = NTag(idx = 0)

  6) RooCategory::  tagSS = NTag(idx = 0)

  7) RooRealVar:: wtagOS = 0.25
  8) RooRealVar:: wtagSS = 0.25
++++++++++++++++++++++++++++++++++++++++++++++++++++++++++++++
nll {0,3}   -8741.25 
++++++++++++++++++++++++++++++++++++++++++++++++++++++++++++++
Requested integration over these variables: 
  1) RooRealVar::    X_M = 1.015
  2) RooRealVar::   cosK = 0
  3) RooRealVar::   cosl = 0
  4) RooRealVar::    phi = 0
  5) RooCategory::  tagOS = NTag(idx = 0)

  6) RooCategory::  tagSS = NTag(idx = 0)

  7) RooRealVar:: wtagOS = 0.25
  8) RooRealVar:: wtagSS = 0.25
++++++++++++++++++++++++++++++++++++++++++++++++++++++++++++++
++++++++++++++++++++++++++++++++++++++++++++++++++++++++++++++
Requested integration over these variables: 
  1) RooRealVar::    X_M = 1.015
  2) RooRealVar::   cosK = 0
  3) RooRealVar::   cosl = 0
  4) RooRealVar::    phi = 0
  5) RooCategory::  tagOS = NTag(idx = 0)

  6) RooCategory::  tagSS = NTag(idx = 0)

  7) RooRealVar:: wtagOS = 0.25
  8) RooRealVar:: wtagSS = 0.25
++++++++++++++++++++++++++++++++++++++++++++++++++++++++++++++
++++++++++++++++++++++++++++++++++++++++++++++++++++++++++++++
Requested integration over these variables: 
  1) RooRealVar::    X_M = 1.015
  2) RooRealVar::   cosK = 0
  3) RooRealVar::   cosl = 0
  4) RooRealVar::    phi = 0
  5) RooCategory::  tagOS = NTag(idx = 0)

  6) RooCategory::  tagSS = NTag(idx = 0)

  7) RooRealVar:: wtagOS = 0.25
  8) RooRealVar:: wtagSS = 0.25
++++++++++++++++++++++++++++++++++++++++++++++++++++++++++++++
++++++++++++++++++++++++++++++++++++++++++++++++++++++++++++++
Requested integration over these variables: 
  1) RooRealVar::    X_M = 1.015
  2) RooRealVar::   cosK = 0
  3) RooRealVar::   cosl = 0
  4) RooRealVar::    phi = 0
  5) RooCategory::  tagOS = NTag(idx = 0)

  6) RooCategory::  tagSS = NTag(idx = 0)

  7) RooRealVar:: wtagOS = 0.25
  8) RooRealVar:: wtagSS = 0.25
++++++++++++++++++++++++++++++++++++++++++++++++++++++++++++++
nll {0,4}   -3660.56 
++++++++++++++++++++++++++++++++++++++++++++++++++++++++++++++
Requested integration over these variables: 
  1) RooRealVar::    X_M = 1.015
  2) RooRealVar::   cosK = 0
  3) RooRealVar::   cosl = 0
  4) RooRealVar::    phi = 0
  5) RooCategory::  tagOS = NTag(idx = 0)

  6) RooCategory::  tagSS = NTag(idx = 0)

  7) RooRealVar:: wtagOS = 0.25
  8) RooRealVar:: wtagSS = 0.25
++++++++++++++++++++++++++++++++++++++++++++++++++++++++++++++
++++++++++++++++++++++++++++++++++++++++++++++++++++++++++++++
Requested integration over these variables: 
  1) RooRealVar::    X_M = 1.015
  2) RooRealVar::   cosK = 0
  3) RooRealVar::   cosl = 0
  4) RooRealVar::    phi = 0
  5) RooCategory::  tagOS = NTag(idx = 0)

  6) RooCategory::  tagSS = NTag(idx = 0)

  7) RooRealVar:: wtagOS = 0.25
  8) RooRealVar:: wtagSS = 0.25
++++++++++++++++++++++++++++++++++++++++++++++++++++++++++++++
++++++++++++++++++++++++++++++++++++++++++++++++++++++++++++++
Requested integration over these variables: 
  1) RooRealVar::    X_M = 1.015
  2) RooRealVar::   cosK = 0
  3) RooRealVar::   cosl = 0
  4) RooRealVar::    phi = 0
  5) RooCategory::  tagOS = NTag(idx = 0)

  6) RooCategory::  tagSS = NTag(idx = 0)

  7) RooRealVar:: wtagOS = 0.25
  8) RooRealVar:: wtagSS = 0.25
++++++++++++++++++++++++++++++++++++++++++++++++++++++++++++++
++++++++++++++++++++++++++++++++++++++++++++++++++++++++++++++
Requested integration over these variables: 
  1) RooRealVar::    X_M = 1.015
  2) RooRealVar::   cosK = 0
  3) RooRealVar::   cosl = 0
  4) RooRealVar::    phi = 0
  5) RooCategory::  tagOS = NTag(idx = 0)

  6) RooCategory::  tagSS = NTag(idx = 0)

  7) RooRealVar:: wtagOS = 0.25
  8) RooRealVar:: wtagSS = 0.25
++++++++++++++++++++++++++++++++++++++++++++++++++++++++++++++
nll {0,5}   -2008.42 
++++++++++++++++++++++++++++++++++++++++++++++++++++++++++++++
Requested integration over these variables: 
  1) RooRealVar::    X_M = 1.015
  2) RooRealVar::   cosK = 0
  3) RooRealVar::   cosl = 0
  4) RooRealVar::    phi = 0
  5) RooCategory::  tagOS = NTag(idx = 0)

  6) RooCategory::  tagSS = NTag(idx = 0)

  7) RooRealVar:: wtagOS = 0.25
  8) RooRealVar:: wtagSS = 0.25
++++++++++++++++++++++++++++++++++++++++++++++++++++++++++++++
++++++++++++++++++++++++++++++++++++++++++++++++++++++++++++++
Requested integration over these variables: 
  1) RooRealVar::    X_M = 1.015
  2) RooRealVar::   cosK = 0
  3) RooRealVar::   cosl = 0
  4) RooRealVar::    phi = 0
  5) RooCategory::  tagOS = NTag(idx = 0)

  6) RooCategory::  tagSS = NTag(idx = 0)

  7) RooRealVar:: wtagOS = 0.25
  8) RooRealVar:: wtagSS = 0.25
++++++++++++++++++++++++++++++++++++++++++++++++++++++++++++++
++++++++++++++++++++++++++++++++++++++++++++++++++++++++++++++
Requested integration over these variables: 
  1) RooRealVar::    X_M = 1.015
  2) RooRealVar::   cosK = 0
  3) RooRealVar::   cosl = 0
  4) RooRealVar::    phi = 0
  5) RooCategory::  tagOS = NTag(idx = 0)

  6) RooCategory::  tagSS = NTag(idx = 0)

  7) RooRealVar:: wtagOS = 0.25
  8) RooRealVar:: wtagSS = 0.25
++++++++++++++++++++++++++++++++++++++++++++++++++++++++++++++
++++++++++++++++++++++++++++++++++++++++++++++++++++++++++++++
Requested integration over these variables: 
  1) RooRealVar::    X_M = 1.015
  2) RooRealVar::   cosK = 0
  3) RooRealVar::   cosl = 0
  4) RooRealVar::    phi = 0
  5) RooCategory::  tagOS = NTag(idx = 0)

  6) RooCategory::  tagSS = NTag(idx = 0)

  7) RooRealVar:: wtagOS = 0.25
  8) RooRealVar:: wtagSS = 0.25
++++++++++++++++++++++++++++++++++++++++++++++++++++++++++++++
nll {1,0}   -2560.21 
++++++++++++++++++++++++++++++++++++++++++++++++++++++++++++++
Requested integration over these variables: 
  1) RooRealVar::    X_M = 1.015
  2) RooRealVar::   cosK = 0
  3) RooRealVar::   cosl = 0
  4) RooRealVar::    phi = 0
  5) RooCategory::  tagOS = NTag(idx = 0)

  6) RooCategory::  tagSS = NTag(idx = 0)

  7) RooRealVar:: wtagOS = 0.25
  8) RooRealVar:: wtagSS = 0.25
++++++++++++++++++++++++++++++++++++++++++++++++++++++++++++++
++++++++++++++++++++++++++++++++++++++++++++++++++++++++++++++
Requested integration over these variables: 
  1) RooRealVar::    X_M = 1.015
  2) RooRealVar::   cosK = 0
  3) RooRealVar::   cosl = 0
  4) RooRealVar::    phi = 0
  5) RooCategory::  tagOS = NTag(idx = 0)

  6) RooCategory::  tagSS = NTag(idx = 0)

  7) RooRealVar:: wtagOS = 0.25
  8) RooRealVar:: wtagSS = 0.25
++++++++++++++++++++++++++++++++++++++++++++++++++++++++++++++
++++++++++++++++++++++++++++++++++++++++++++++++++++++++++++++
Requested integration over these variables: 
  1) RooRealVar::    X_M = 1.015
  2) RooRealVar::   cosK = 0
  3) RooRealVar::   cosl = 0
  4) RooRealVar::    phi = 0
  5) RooCategory::  tagOS = NTag(idx = 0)

  6) RooCategory::  tagSS = NTag(idx = 0)

  7) RooRealVar:: wtagOS = 0.25
  8) RooRealVar:: wtagSS = 0.25
++++++++++++++++++++++++++++++++++++++++++++++++++++++++++++++
++++++++++++++++++++++++++++++++++++++++++++++++++++++++++++++
Requested integration over these variables: 
  1) RooRealVar::    X_M = 1.015
  2) RooRealVar::   cosK = 0
  3) RooRealVar::   cosl = 0
  4) RooRealVar::    phi = 0
  5) RooCategory::  tagOS = NTag(idx = 0)

  6) RooCategory::  tagSS = NTag(idx = 0)

  7) RooRealVar:: wtagOS = 0.25
  8) RooRealVar:: wtagSS = 0.25
++++++++++++++++++++++++++++++++++++++++++++++++++++++++++++++
nll {1,1}  -13495.84 
++++++++++++++++++++++++++++++++++++++++++++++++++++++++++++++
Requested integration over these variables: 
  1) RooRealVar::    X_M = 1.015
  2) RooRealVar::   cosK = 0
  3) RooRealVar::   cosl = 0
  4) RooRealVar::    phi = 0
  5) RooCategory::  tagOS = NTag(idx = 0)

  6) RooCategory::  tagSS = NTag(idx = 0)

  7) RooRealVar:: wtagOS = 0.25
  8) RooRealVar:: wtagSS = 0.25
++++++++++++++++++++++++++++++++++++++++++++++++++++++++++++++
++++++++++++++++++++++++++++++++++++++++++++++++++++++++++++++
Requested integration over these variables: 
  1) RooRealVar::    X_M = 1.015
  2) RooRealVar::   cosK = 0
  3) RooRealVar::   cosl = 0
  4) RooRealVar::    phi = 0
  5) RooCategory::  tagOS = NTag(idx = 0)

  6) RooCategory::  tagSS = NTag(idx = 0)

  7) RooRealVar:: wtagOS = 0.25
  8) RooRealVar:: wtagSS = 0.25
++++++++++++++++++++++++++++++++++++++++++++++++++++++++++++++
++++++++++++++++++++++++++++++++++++++++++++++++++++++++++++++
Requested integration over these variables: 
  1) RooRealVar::    X_M = 1.015
  2) RooRealVar::   cosK = 0
  3) RooRealVar::   cosl = 0
  4) RooRealVar::    phi = 0
  5) RooCategory::  tagOS = NTag(idx = 0)

  6) RooCategory::  tagSS = NTag(idx = 0)

  7) RooRealVar:: wtagOS = 0.25
  8) RooRealVar:: wtagSS = 0.25
++++++++++++++++++++++++++++++++++++++++++++++++++++++++++++++
++++++++++++++++++++++++++++++++++++++++++++++++++++++++++++++
Requested integration over these variables: 
  1) RooRealVar::    X_M = 1.015
  2) RooRealVar::   cosK = 0
  3) RooRealVar::   cosl = 0
  4) RooRealVar::    phi = 0
  5) RooCategory::  tagOS = NTag(idx = 0)

  6) RooCategory::  tagSS = NTag(idx = 0)

  7) RooRealVar:: wtagOS = 0.25
  8) RooRealVar:: wtagSS = 0.25
++++++++++++++++++++++++++++++++++++++++++++++++++++++++++++++
nll {1,2}  -46599.55 
++++++++++++++++++++++++++++++++++++++++++++++++++++++++++++++
Requested integration over these variables: 
  1) RooRealVar::    X_M = 1.015
  2) RooRealVar::   cosK = 0
  3) RooRealVar::   cosl = 0
  4) RooRealVar::    phi = 0
  5) RooCategory::  tagOS = NTag(idx = 0)

  6) RooCategory::  tagSS = NTag(idx = 0)

  7) RooRealVar:: wtagOS = 0.25
  8) RooRealVar:: wtagSS = 0.25
++++++++++++++++++++++++++++++++++++++++++++++++++++++++++++++
++++++++++++++++++++++++++++++++++++++++++++++++++++++++++++++
Requested integration over these variables: 
  1) RooRealVar::    X_M = 1.015
  2) RooRealVar::   cosK = 0
  3) RooRealVar::   cosl = 0
  4) RooRealVar::    phi = 0
  5) RooCategory::  tagOS = NTag(idx = 0)

  6) RooCategory::  tagSS = NTag(idx = 0)

  7) RooRealVar:: wtagOS = 0.25
  8) RooRealVar:: wtagSS = 0.25
++++++++++++++++++++++++++++++++++++++++++++++++++++++++++++++
++++++++++++++++++++++++++++++++++++++++++++++++++++++++++++++
Requested integration over these variables: 
  1) RooRealVar::    X_M = 1.015
  2) RooRealVar::   cosK = 0
  3) RooRealVar::   cosl = 0
  4) RooRealVar::    phi = 0
  5) RooCategory::  tagOS = NTag(idx = 0)

  6) RooCategory::  tagSS = NTag(idx = 0)

  7) RooRealVar:: wtagOS = 0.25
  8) RooRealVar:: wtagSS = 0.25
++++++++++++++++++++++++++++++++++++++++++++++++++++++++++++++
++++++++++++++++++++++++++++++++++++++++++++++++++++++++++++++
Requested integration over these variables: 
  1) RooRealVar::    X_M = 1.015
  2) RooRealVar::   cosK = 0
  3) RooRealVar::   cosl = 0
  4) RooRealVar::    phi = 0
  5) RooCategory::  tagOS = NTag(idx = 0)

  6) RooCategory::  tagSS = NTag(idx = 0)

  7) RooRealVar:: wtagOS = 0.25
  8) RooRealVar:: wtagSS = 0.25
++++++++++++++++++++++++++++++++++++++++++++++++++++++++++++++
nll {1,3}  -37560.19 
++++++++++++++++++++++++++++++++++++++++++++++++++++++++++++++
Requested integration over these variables: 
  1) RooRealVar::    X_M = 1.015
  2) RooRealVar::   cosK = 0
  3) RooRealVar::   cosl = 0
  4) RooRealVar::    phi = 0
  5) RooCategory::  tagOS = NTag(idx = 0)

  6) RooCategory::  tagSS = NTag(idx = 0)

  7) RooRealVar:: wtagOS = 0.25
  8) RooRealVar:: wtagSS = 0.25
++++++++++++++++++++++++++++++++++++++++++++++++++++++++++++++
++++++++++++++++++++++++++++++++++++++++++++++++++++++++++++++
Requested integration over these variables: 
  1) RooRealVar::    X_M = 1.015
  2) RooRealVar::   cosK = 0
  3) RooRealVar::   cosl = 0
  4) RooRealVar::    phi = 0
  5) RooCategory::  tagOS = NTag(idx = 0)

  6) RooCategory::  tagSS = NTag(idx = 0)

  7) RooRealVar:: wtagOS = 0.25
  8) RooRealVar:: wtagSS = 0.25
++++++++++++++++++++++++++++++++++++++++++++++++++++++++++++++
++++++++++++++++++++++++++++++++++++++++++++++++++++++++++++++
Requested integration over these variables: 
  1) RooRealVar::    X_M = 1.015
  2) RooRealVar::   cosK = 0
  3) RooRealVar::   cosl = 0
  4) RooRealVar::    phi = 0
  5) RooCategory::  tagOS = NTag(idx = 0)

  6) RooCategory::  tagSS = NTag(idx = 0)

  7) RooRealVar:: wtagOS = 0.25
  8) RooRealVar:: wtagSS = 0.25
++++++++++++++++++++++++++++++++++++++++++++++++++++++++++++++
++++++++++++++++++++++++++++++++++++++++++++++++++++++++++++++
Requested integration over these variables: 
  1) RooRealVar::    X_M = 1.015
  2) RooRealVar::   cosK = 0
  3) RooRealVar::   cosl = 0
  4) RooRealVar::    phi = 0
  5) RooCategory::  tagOS = NTag(idx = 0)

  6) RooCategory::  tagSS = NTag(idx = 0)

  7) RooRealVar:: wtagOS = 0.25
  8) RooRealVar:: wtagSS = 0.25
++++++++++++++++++++++++++++++++++++++++++++++++++++++++++++++
nll {1,4}  -16392.08 
++++++++++++++++++++++++++++++++++++++++++++++++++++++++++++++
Requested integration over these variables: 
  1) RooRealVar::    X_M = 1.015
  2) RooRealVar::   cosK = 0
  3) RooRealVar::   cosl = 0
  4) RooRealVar::    phi = 0
  5) RooCategory::  tagOS = NTag(idx = 0)

  6) RooCategory::  tagSS = NTag(idx = 0)

  7) RooRealVar:: wtagOS = 0.25
  8) RooRealVar:: wtagSS = 0.25
++++++++++++++++++++++++++++++++++++++++++++++++++++++++++++++
++++++++++++++++++++++++++++++++++++++++++++++++++++++++++++++
Requested integration over these variables: 
  1) RooRealVar::    X_M = 1.015
  2) RooRealVar::   cosK = 0
  3) RooRealVar::   cosl = 0
  4) RooRealVar::    phi = 0
  5) RooCategory::  tagOS = NTag(idx = 0)

  6) RooCategory::  tagSS = NTag(idx = 0)

  7) RooRealVar:: wtagOS = 0.25
  8) RooRealVar:: wtagSS = 0.25
++++++++++++++++++++++++++++++++++++++++++++++++++++++++++++++
++++++++++++++++++++++++++++++++++++++++++++++++++++++++++++++
Requested integration over these variables: 
  1) RooRealVar::    X_M = 1.015
  2) RooRealVar::   cosK = 0
  3) RooRealVar::   cosl = 0
  4) RooRealVar::    phi = 0
  5) RooCategory::  tagOS = NTag(idx = 0)

  6) RooCategory::  tagSS = NTag(idx = 0)

  7) RooRealVar:: wtagOS = 0.25
  8) RooRealVar:: wtagSS = 0.25
++++++++++++++++++++++++++++++++++++++++++++++++++++++++++++++
++++++++++++++++++++++++++++++++++++++++++++++++++++++++++++++
Requested integration over these variables: 
  1) RooRealVar::    X_M = 1.015
  2) RooRealVar::   cosK = 0
  3) RooRealVar::   cosl = 0
  4) RooRealVar::    phi = 0
  5) RooCategory::  tagOS = NTag(idx = 0)

  6) RooCategory::  tagSS = NTag(idx = 0)

  7) RooRealVar:: wtagOS = 0.25
  8) RooRealVar:: wtagSS = 0.25
++++++++++++++++++++++++++++++++++++++++++++++++++++++++++++++
nll {1,5}   -9397.63 
  1) RooRealVar::          DeltaG = 0.16908 +/- 0.0086742
  2) RooRealVar::          DeltaM = 17.707 +/- 0.060028
  3) RooRealVar::            FS_0 = 0.46132 +/- 0.047093
  4) RooRealVar::           Gamma = 0.65864 +/- 0.0026242
  5) RooRealVar::     a0_2016TrgB = 1
  6) RooRealVar::     a1_2016TrgB = 1.49
  7) RooRealVar::     a2_2016TrgB = 2.14
  8) RooRealVar::     a3_2016TrgB = 2.22
  9) RooRealVar::     a4_2016TrgB = 2.34
 10) RooRealVar::     a5_2016TrgB = 2.48
 11) RooRealVar::     a6_2016TrgB = 2.46
 12) RooRealVar::     a7_2016TrgB = 2.37
 13) RooRealVar::     a8_2016TrgB = 3.2
 14) RooRealVar::          acpPro = 0
 15) RooRealVar::            del0 = 0
 16) RooRealVar::  delS_0-delperp = 2.34798 +/- 0.21816
 17) RooRealVar::    delpara-del0 = 3.0796 +/- 0.085736
 18) RooRealVar::    delperp-del0 = 2.5992 +/- 0.13473
 19) RooRealVar::          dp0_OS = 0.0091
 20) RooRealVar::         dp0_SSK = -0
 21) RooRealVar::          dp1_OS = 0.0037
 22) RooRealVar::         dp1_SSK = 0
 23) RooCategory:: dummyBlindState = Blind(idx = 1)

 24) RooRealVar::      eta_bar_OS = 0.3793
 25) RooRealVar::     eta_bar_SSK = 0.4272
 26) RooRealVar::              g1 = 0.167
 27) RooRealVar::          lambda = 1.0181 +/- 0.015724
 28) RooRealVar::              m0 = 0.9499
 29) RooRealVar::          m0_phi = 1.0195
 30) RooRealVar::              p0 = 0.01206
 31) RooRealVar::           p0_OS = 0.3832
 32) RooRealVar::          p0_SSK = 0.4378
 33) RooRealVar::              p1 = 0.8793
 34) RooRealVar::           p1_OS = 0.916
 35) RooRealVar::          p1_SSK = 1.0385
 36) RooRealVar::              p2 = 0
 37) RooRealVar::            phis = -0.228194 +/- 0.045398
 38) RooRealVar::          res_mu = 0
 39) RooRealVar::            rg21 = 3.05
 40) RooRealVar::              sc = 1
 41) RooRealVar::       width_phi = 0.004266
 42) RooRealVar::          |A0|^2 = 0.52005 +/- 0.0032243
 43) RooRealVar::       |Aperp|^2 = 0.24459 +/- 0.0044196
 44) RooRealVar::            FS_1 = 0.037749 +/- 0.008636
 45) RooRealVar::  delS_1-delperp = 1.6587 +/- 0.34001
 46) RooRealVar::            FS_2 = 0.0040722 +/- 0.0024471
 47) RooRealVar::  delS_2-delperp = 1.0715 +/- 0.47687
 48) RooRealVar::            FS_3 = 0.010625 +/- 0.0063861
 49) RooRealVar::  delS_3-delperp = -0.249381 +/- 0.15219
 50) RooRealVar::            FS_4 = 0.062466 +/- 0.01364
 51) RooRealVar::  delS_4-delperp = -0.484205 +/- 0.10489
 52) RooRealVar::            FS_5 = 0.11544 +/- 0.019034
 53) RooRealVar::  delS_5-delperp = -1.18512 +/- 0.21751
 54) RooRealVar::     a0_2016TrgU = 1
 55) RooRealVar::     a1_2016TrgU = 0.975
 56) RooRealVar::     a2_2016TrgU = 1.057
 57) RooRealVar::     a3_2016TrgU = 0.981
 58) RooRealVar::     a4_2016TrgU = 0.979
 59) RooRealVar::     a5_2016TrgU = 0.995
 60) RooRealVar::     a6_2016TrgU = 1.028
 61) RooRealVar::     a7_2016TrgU = 1.01
 62) RooRealVar::     a8_2016TrgU = 0.73
[#0] WARNING:Minization -- RooMinuit::RooMinuit: removing parameter dummyBlindState from list because it is not of type RooRealVar
[#1] INFO:Fitting -- RooAddition::defaultErrorLevel(nll) Summation contains a RooNLLVar, using its error level
 **********
 **    9 **SET ERR         0.5
 **********
 **********
 **   10 **SET STR           1
 **********
 NOW USING STRATEGY  1: TRY TO BALANCE SPEED AGAINST RELIABILITY
 **********
 **   11 **SET PRINT           2
 **********
***NLL =      -143194.56
 **********
 **   16 **MIGRAD    1.05e+04           1
 **********
 FIRST CALL TO USER FUNCTION AT NEW START POINT, WITH IFLAG=4.
 START MIGRAD MINIMIZATION.  STRATEGY  1.  CONVERGENCE WHEN EDM .LT. 1.00e-03
 FCN=-143195 FROM MIGRAD    STATUS=INITIATE       56 CALLS          57 TOTAL
                     EDM= unknown      STRATEGY= 1      NO ERROR MATRIX       
  EXT PARAMETER               CURRENT GUESS       STEP         FIRST   
  NO.   NAME      VALUE            ERROR          SIZE      DERIVATIVE 
   1  DeltaG       1.69080e-01   8.67420e-03   1.21082e-01  -2.78346e-01
   2  DeltaM       1.77070e+01   6.00280e-02   2.40963e-02   1.00550e+01
   3  FS_0         4.61320e-01   4.70930e-02   6.95866e-03  -9.92878e+00
   4  FS_1         3.77490e-02   8.63600e-03   4.47548e-03   8.43167e+00
   5  FS_2         4.07220e-03   2.44710e-03   4.04304e-03   1.11534e+01
   6  FS_3         1.06250e-02   6.38610e-03   6.53230e-03   1.41618e+01
   7  FS_4         6.24660e-02   1.36400e-02   5.49241e-03   1.36896e+01
   8  FS_5         1.15440e-01   1.90340e-02   5.62461e-03   9.14817e+00
   9  Gamma        6.58640e-01   2.62420e-03   1.75247e-02  -8.97351e+01
  10  delS_0-delperp   2.34798e+00   2.18160e-01   3.74462e-02   1.19160e+00
  11  delS_1-delperp   1.65870e+00   3.40010e-01   5.61406e-02   1.24087e-03
  12  delS_2-delperp   1.07150e+00   4.76870e-01   7.71077e-02  -2.39563e-01
  13  delS_3-delperp  -2.49381e-01   1.52190e-01   2.42433e-02  -3.83269e-02
  14  delS_4-delperp  -4.84205e-01   1.04890e-01   1.67443e-02   8.28990e-02
  15  delS_5-delperp  -1.18512e+00   2.17510e-01   3.52586e-02   1.55577e-02
  16  delpara-del0   3.07960e+00   8.57360e-02   1.56559e-02   7.40901e+00
  17  delperp-del0   2.59920e+00   1.34730e-01   2.35562e-02  -2.82303e+00
  18  lambda       1.01810e+00   1.57240e-02   3.14738e-02  -1.23223e+01
  19  phis        -2.28194e-01   4.53980e-02   7.23014e-03  -1.71269e+01
  20  |A0|^2       5.20050e-01   3.22430e-03   1.05403e-02  -9.81499e-01
  21  |Aperp|^2    2.44590e-01   4.41960e-03   1.76835e-02   1.33550e+01
                               ERR DEF= 0.5
NO ERROR MATRIX       
 FCN=-143196 FROM MIGRAD    STATUS=PROGRESS       99 CALLS         100 TOTAL
                     EDM=0.313503    STRATEGY= 1      NO ERROR MATRIX       
  EXT PARAMETER               CURRENT GUESS       STEP         FIRST   
  NO.   NAME      VALUE            ERROR          SIZE      DERIVATIVE 
   1  DeltaG       1.69191e-01   8.67420e-03   1.53986e-03   3.85047e+00
   2  DeltaM       1.76998e+01   6.00280e-02  -2.87123e-03  -1.80644e+00
   3  FS_0         4.64491e-01   4.70930e-02   4.67174e-04  -3.97114e+00
   4  FS_1         3.74514e-02   8.63600e-03  -1.53485e-04  -1.34693e+01
   5  FS_2         4.01858e-03   2.44710e-03  -8.43012e-05  -1.07210e+01
   6  FS_3         1.01806e-02   6.38610e-03  -4.35716e-04  -4.76380e+00
   7  FS_4         6.16433e-02   1.36400e-02  -3.30353e-04  -1.33278e+01
   8  FS_5         1.14736e-01   1.90340e-02  -2.07599e-04  -1.00269e+01
   9  Gamma        6.61719e-01   2.62420e-03   2.05752e-02   1.89762e+00
  10  delS_0-delperp   2.34071e+00   2.18160e-01  -1.24703e-03  -6.28676e-01
  11  delS_1-delperp   1.65868e+00   3.40010e-01  -3.42900e-06   1.67551e+00
  12  delS_2-delperp   1.07599e+00   4.76870e-01   7.24548e-04   3.52399e-01
  13  delS_3-delperp  -2.49264e-01   1.52190e-01   1.86591e-05   2.94741e+00
  14  delS_4-delperp  -4.84324e-01   1.04890e-01  -1.89469e-05   4.15495e+00
  15  delS_5-delperp  -1.18520e+00   2.17510e-01  -1.35776e-05   1.11460e+00
  16  delpara-del0   3.07093e+00   8.57360e-02  -1.58291e-03  -3.80818e-01
  17  delperp-del0   2.60300e+00   1.34730e-01   6.63756e-04   9.17872e+00
  18  lambda       1.02402e+00   1.57240e-02   1.18417e-02  -1.81900e+00
  19  phis        -2.23019e-01   4.53980e-02   8.24106e-04  -8.98788e-01
  20  |A0|^2       5.20068e-01   3.22430e-03   5.95038e-05  -5.99423e+00
  21  |Aperp|^2    2.44122e-01   4.41960e-03  -1.87140e-03  -1.12551e+01
                               ERR DEF= 0.5
 MIGRAD MINIMIZATION HAS CONVERGED.
 MIGRAD WILL VERIFY CONVERGENCE AND ERROR MATRIX.
   START COVARIANCE MATRIX CALCULATION.
 EIGENVALUES OF SECOND-DERIVATIVE MATRIX:
         1.8942e-01  2.5420e-01  2.8775e-01  4.8346e-01  5.1663e-01  5.7643e-01  7.3401e-01  7.7245e-01  8.6348e-01  9.1885e-01  9.7557e-01  1.0701e+00  1.1076e+00  1.2738e+00  1.3233e+00  1.3950e+00  1.4149e+00  1.4729e+00  1.6133e+00  1.7154e+00  2.0414e+00
 COVARIANCE MATRIX CALCULATED SUCCESSFULLY
 FCN=-143196 FROM MIGRAD    STATUS=CONVERGED     697 CALLS         698 TOTAL
                     EDM=0.000417124    STRATEGY= 1      ERROR MATRIX ACCURATE 
  EXT PARAMETER                                   STEP         FIRST   
  NO.   NAME      VALUE            ERROR          SIZE      DERIVATIVE 
   1  DeltaG       1.64429e-01   8.48407e-03   1.86420e-02   4.08855e-02
   2  DeltaM       1.76915e+01   6.13700e-02   4.40761e-03  -2.57535e-01
   3  FS_0         4.67549e-01   4.67236e-02   1.77922e-03  -3.12583e-01
   4  FS_1         3.79522e-02   8.57533e-03   1.11884e-03  -2.96262e-02
   5  FS_2         4.18554e-03   2.55012e-03   7.29987e-04  -1.88026e-01
   6  FS_3         9.95378e-03   6.30310e-03   1.47493e-03  -7.78109e-01
   7  FS_4         6.23113e-02   1.37218e-02   1.29385e-03  -5.25662e-01
   8  FS_5         1.16257e-01   1.91151e-02   1.25078e-03  -3.51184e-02
   9  Gamma        6.62372e-01   2.60082e-03   3.98533e-03   4.66988e-02
  10  delS_0-delperp   2.34802e+00   1.88589e-01   8.40662e-03  -1.73064e-01
  11  delS_1-delperp   1.63507e+00   3.38244e-01   1.37770e-02  -6.66781e-02
  12  delS_2-delperp   1.04634e+00   4.65074e-01   1.37613e-02   1.18343e-01
  13  delS_3-delperp  -2.61233e-01   1.60052e-01   5.99396e-03  -1.37476e-01
  14  delS_4-delperp  -4.89156e-01   1.05905e-01   3.97366e-03  -1.57769e-01
  15  delS_5-delperp  -1.17962e+00   2.13414e-01   7.59280e-03  -2.65212e-01
  16  delpara-del0   3.07096e+00   8.37476e-02   3.72427e-03   3.41528e-01
  17  delperp-del0   2.58044e+00   1.33581e-01   3.97134e-03  -1.74907e-01
  18  lambda       1.02578e+00   1.65218e-02   8.11608e-03  -7.57102e-02
  19  phis        -2.21548e-01   4.58023e-02   1.85425e-03  -2.11583e-01
  20  |A0|^2       5.18981e-01   3.20347e-03   2.02613e-03   2.89197e-01
  21  |Aperp|^2    2.46172e-01   4.39355e-03   3.10231e-03  -2.29984e-02
                               ERR DEF= 0.5
 EXTERNAL ERROR MATRIX.    NDIM= 148    NPAR= 21    ERR DEF=0.5
 ELEMENTS ABOVE DIAGONAL ARE NOT PRINTED.
  7.228e-05 
  1.415e-05  3.767e-03 
 -2.530e-05 -5.477e-05  2.183e-03 
 -2.431e-06 -1.089e-05  1.105e-06  7.354e-05 
 -3.676e-07 -8.477e-06  4.309e-07  5.484e-08  6.503e-06 
  1.407e-06  3.232e-05 -1.076e-06  2.649e-07 -2.877e-07  3.973e-05 
 -4.291e-06  8.906e-06  1.686e-06  5.644e-07  7.872e-08  1.047e-06  1.883e-04 
 -7.838e-06 -6.551e-05  3.524e-06  1.225e-06 -2.674e-08  7.055e-07  8.656e-07  3.654e-04 
 -1.022e-05 -1.530e-06  5.539e-06  6.963e-07  1.774e-07  5.691e-07  2.044e-06  2.525e-06  6.765e-06 
 -3.404e-06 -5.995e-04  7.335e-04  2.983e-07  6.892e-07 -7.941e-06 -8.442e-06  2.280e-05  2.299e-06  3.558e-02 
  4.232e-05 -1.309e-03 -2.818e-05  6.288e-04 -2.017e-05  7.189e-05  1.933e-05  1.094e-04  1.140e-07  1.975e-04  1.145e-01 
  1.223e-05  2.877e-03 -7.820e-05  3.285e-07 -8.364e-04  8.232e-05  2.763e-06  3.085e-05 -1.838e-05 -3.318e-04  4.439e-03 
  1.223e-05  2.877e-03 -7.820e-05  3.285e-07 -8.364e-04  8.232e-05  2.763e-06  3.085e-05 -1.838e-05 -3.318e-04  4.439e-03  2.167e-01 
  2.229e-05  4.178e-04 -2.036e-05  4.869e-06 -7.736e-06  4.303e-04  1.200e-05  2.669e-05  5.364e-06 -7.105e-05  1.977e-03 
  2.229e-05  4.178e-04 -2.036e-05  4.869e-06 -7.736e-06  4.303e-04  1.200e-05  2.669e-05  5.364e-06 -7.105e-05  1.977e-03  1.998e-03  2.562e-02 
  1.191e-05  8.559e-05 -8.726e-06  1.830e-06 -3.308e-06  1.404e-05  6.149e-04  1.438e-05  3.857e-06 -8.199e-06  9.204e-04 
  1.191e-05  8.559e-05 -8.726e-06  1.830e-06 -3.308e-06  1.404e-05  6.149e-04  1.438e-05  3.857e-06 -8.199e-06  9.204e-04  8.140e-04  3.314e-04  1.122e-02 
  2.444e-06 -7.584e-04 -1.112e-06  8.709e-06 -5.986e-06  1.434e-05 -1.252e-05  2.104e-03  9.792e-06  4.383e-04  2.323e-03 
  2.444e-06 -7.584e-04 -1.112e-06  8.709e-06 -5.986e-06  1.434e-05 -1.252e-05  2.104e-03  9.792e-06  4.383e-04  2.323e-03  1.494e-03  6.498e-04  3.277e-04  4.556e-02 
 -9.088e-06 -1.585e-04  3.255e-05 -1.296e-05  9.080e-06  3.903e-06  4.266e-05  1.716e-06  4.877e-06 -2.160e-04 -1.081e-03 
 -9.088e-06 -1.585e-04  3.255e-05 -1.296e-05  9.080e-06  3.903e-06  4.266e-05  1.716e-06  4.877e-06 -2.160e-04 -1.081e-03 -2.017e-03 -1.875e-04 -3.566e-05 -5.719e-04  7.014e-03 
  1.846e-05  5.591e-03 -5.045e-05 -3.934e-05  9.257e-06 -1.407e-05  3.199e-05 -2.905e-04 -2.171e-06 -1.371e-03 -7.898e-03 
  1.846e-05  5.591e-03 -5.045e-05 -3.934e-05  9.257e-06 -1.407e-05  3.199e-05 -2.905e-04 -2.171e-06 -1.371e-03 -7.898e-03 -1.456e-03 -1.377e-03 -7.534e-04 -5.329e-03  2.287e-03  1.785e-02 
 -8.735e-06  7.407e-06  7.109e-06 -5.695e-07  3.443e-06 -1.447e-05 -9.252e-06  6.679e-06  7.102e-07  8.603e-05 -1.007e-03 
 -8.735e-06  7.407e-06  7.109e-06 -5.695e-07  3.443e-06 -1.447e-05 -9.252e-06  6.679e-06  7.102e-07  8.603e-05 -1.007e-03 -7.086e-04 -3.112e-04 -1.395e-04  8.597e-05 -7.171e-05  2.318e-04  2.731e-04 
 -3.574e-06 -2.077e-04  2.584e-05  9.733e-07  3.522e-06 -1.545e-05 -2.389e-05 -1.463e-05 -5.272e-06  7.638e-06 -4.727e-04 
 -3.574e-06 -2.077e-04  2.584e-05  9.733e-07  3.522e-06 -1.545e-05 -2.389e-05 -1.463e-05 -5.272e-06  7.638e-06 -4.727e-04 -7.035e-04 -1.455e-04 -1.217e-04 -5.557e-06  3.408e-05 -4.590e-04  1.393e-04  2.098e-03 
  1.705e-05  2.959e-06 -6.966e-06 -1.301e-07  9.654e-08  1.034e-06  3.028e-07 -1.076e-06 -2.582e-06 -2.449e-06  1.487e-05 
  1.705e-05  2.959e-06 -6.966e-06 -1.301e-07  9.654e-08  1.034e-06  3.028e-07 -1.076e-06 -2.582e-06 -2.449e-06  1.487e-05 -2.234e-05  1.361e-05  6.999e-06  7.252e-06  2.234e-07  2.176e-06 -1.971e-06  4.020e-06  1.026e-05 
 -2.571e-05 -6.929e-06  8.908e-06 -9.343e-07 -2.088e-07 -1.441e-06 -3.260e-07  1.479e-06  4.448e-06  1.580e-05 -1.808e-05 
 -2.571e-05 -6.929e-06  8.908e-06 -9.343e-07 -2.088e-07 -1.441e-06 -3.260e-07  1.479e-06  4.448e-06  1.580e-05 -1.808e-05  1.459e-05 -1.412e-05 -3.051e-06  1.724e-05  4.003e-05  1.393e-06  2.122e-06 -6.170e-06 -8.438e-06  1.931e-05 
 PARAMETER  CORRELATION COEFFICIENTS  
       NO.  GLOBAL      1      2      3      4      5      6      7      8      9     10     11     12     13     14     15     16
        1  0.76689   1.000  0.027 -0.064 -0.033 -0.017  0.026 -0.037 -0.048 -0.462 -0.002  0.015  0.003  0.016  0.013  0.001 -0.013
        2  0.72847   0.027  1.000 -0.019 -0.021 -0.054  0.084  0.011 -0.056 -0.010 -0.052 -0.063  0.101  0.043  0.013 -0.058 -0.031
        3  0.10877  -0.064 -0.019  1.000  0.003  0.004 -0.004  0.003  0.004  0.046  0.083 -0.002 -0.004 -0.003 -0.002 -0.000  0.008
        4  0.23301  -0.033 -0.021  0.003  1.000  0.003  0.005  0.005  0.007  0.031  0.000  0.217  0.000  0.004  0.002  0.005 -0.018
        5  0.70612  -0.017 -0.054  0.004  0.003  1.000 -0.018  0.002 -0.001  0.027  0.001 -0.023 -0.705 -0.019 -0.012 -0.011  0.043
        6  0.44929   0.026  0.084 -0.004  0.005 -0.018  1.000  0.012  0.006  0.035 -0.007  0.034  0.028  0.426  0.021  0.011  0.007
        7  0.43497  -0.037  0.011  0.003  0.005  0.002  0.012  1.000  0.003  0.057 -0.003  0.004  0.000  0.005  0.423 -0.004  0.037
        8  0.52141  -0.048 -0.056  0.004  0.007 -0.001  0.006  0.003  1.000  0.051  0.006  0.017  0.003  0.009  0.007  0.516  0.001
        9  0.48127  -0.462 -0.010  0.046  0.031  0.027  0.035  0.057  0.051  1.000  0.005  0.000 -0.015  0.013  0.014  0.018  0.022
       10  0.10957  -0.002 -0.052  0.083  0.000  0.001 -0.007 -0.003  0.006  0.005  1.000  0.003 -0.004 -0.002 -0.000  0.011 -0.014
       11  0.32504   0.015 -0.063 -0.002  0.217 -0.023  0.034  0.004  0.017  0.000  0.003  1.000  0.028  0.036  0.026  0.032 -0.038
       12  0.71110   0.003  0.101 -0.004  0.000 -0.705  0.028  0.000  0.003 -0.015 -0.004  0.028  1.000  0.027  0.017  0.015 -0.052
       13  0.43795   0.016  0.043 -0.003  0.004 -0.019  0.426  0.005  0.009  0.013 -0.002  0.036  0.027  1.000  0.020  0.019 -0.014
       14  0.43724   0.013  0.013 -0.002  0.002 -0.012  0.021  0.423  0.007  0.014 -0.000  0.026  0.017  0.020  1.000  0.014 -0.004
       15  0.54159   0.001 -0.058 -0.000  0.005 -0.011  0.011 -0.004  0.516  0.018  0.011  0.032  0.015  0.019  0.014  1.000 -0.032
       16  0.36020  -0.013 -0.031  0.008 -0.018  0.043  0.007  0.037  0.001  0.022 -0.014 -0.038 -0.052 -0.014 -0.004 -0.032  1.000
       17  0.75844   0.016  0.682 -0.008 -0.034  0.027 -0.017  0.017 -0.114 -0.006 -0.054 -0.175 -0.023 -0.064 -0.053 -0.187  0.204
                     1.000  0.105 -0.075  0.005  0.002
       18  0.34462  -0.062  0.007  0.009 -0.004  0.082 -0.139 -0.041  0.021  0.017  0.028 -0.180 -0.092 -0.118 -0.080  0.024 -0.052
                     0.105  1.000  0.184 -0.037  0.029
       19  0.23142  -0.009 -0.074  0.012  0.002  0.030 -0.053 -0.038 -0.017 -0.044  0.001 -0.030 -0.033 -0.020 -0.025 -0.001  0.009
                    -0.075  0.184  1.000  0.027 -0.031
       20  0.67055   0.626  0.015 -0.047 -0.005  0.012  0.051  0.007 -0.018 -0.310 -0.004  0.014 -0.015  0.027  0.021  0.011  0.001
                     0.005 -0.037  0.027  1.000 -0.599
       21  0.73741  -0.688 -0.026  0.043 -0.025 -0.019 -0.052 -0.005  0.018  0.389  0.019 -0.012  0.007 -0.020 -0.007  0.018  0.109
                     0.002  0.029 -0.031 -0.599  1.000
 **********
 **   21 **HESSE    1.05e+04
 **********
   START COVARIANCE MATRIX CALCULATION.
 EIGENVALUES OF SECOND-DERIVATIVE MATRIX:
         1.8507e-01  2.5582e-01  3.0749e-01  4.8576e-01  5.1127e-01  5.6055e-01  7.5834e-01  7.6607e-01  8.8397e-01  9.1627e-01  9.7392e-01  1.0677e+00  1.0919e+00  1.2654e+00  1.3013e+00  1.4006e+00  1.4486e+00  1.4667e+00  1.6112e+00  1.7035e+00  2.0386e+00
 COVARIANCE MATRIX CALCULATED SUCCESSFULLY
 FCN=-143196 FROM HESSE     STATUS=OK            295 CALLS         993 TOTAL
                     EDM=0.000416049    STRATEGY= 1      ERROR MATRIX ACCURATE 
  EXT PARAMETER                                INTERNAL      INTERNAL  
  NO.   NAME      VALUE            ERROR       STEP SIZE       VALUE   
   1  DeltaG       1.64429e-01   8.56773e-03   7.45680e-04   7.00092e-01
   2  DeltaM       1.76915e+01   6.14260e-02   8.81521e-04   7.66919e-02
   3  FS_0         4.67549e-01   4.67422e-02   7.11686e-05  -1.43393e+00
   4  FS_1         3.79522e-02   8.46215e-03   4.47537e-05  -1.53183e+00
   5  FS_2         4.18554e-03   2.47904e-03   2.91995e-05  -1.55786e+00
   6  FS_3         9.95378e-03   6.43035e-03   5.89971e-05  -1.55084e+00
   7  FS_4         6.23113e-02   1.38006e-02   5.17540e-05  -1.52087e+00
   8  FS_5         1.16257e-01   1.88679e-02   5.00311e-05  -1.50259e+00
   9  Gamma        6.62372e-01   2.61520e-03   1.59413e-04   8.25746e-02
  10  delS_0-delperp   2.34802e+00   1.88610e-01   3.36265e-04   3.82993e-01
  11  delS_1-delperp   1.63507e+00   3.35070e-01   5.51079e-04   2.63259e-01
  12  delS_2-delperp   1.04634e+00   4.52567e-01   5.50451e-04   1.67310e-01
  13  delS_3-delperp  -2.61233e-01   1.63257e-01   2.39758e-04  -4.15885e-02
  14  delS_4-delperp  -4.89156e-01   1.06450e-01   1.58947e-04  -7.79304e-02
  15  delS_5-delperp  -1.17962e+00   2.10742e-01   3.03712e-04  -1.88862e-01
  16  delpara-del0   3.07096e+00   8.42611e-02   1.48971e-04   5.10666e-01
  17  delperp-del0   2.58044e+00   1.33278e-01   7.94268e-04   4.23209e-01
  18  lambda       1.02578e+00   1.64699e-02   3.24643e-04   5.15737e-02
  19  phis        -2.21548e-01   4.58396e-02   7.41701e-05  -3.52677e-02
  20  |A0|^2       5.18981e-01   3.22271e-03   4.05225e-04   5.03853e-01
  21  |Aperp|^2    2.46172e-01   4.43486e-03   1.24092e-04  -1.53126e-02
                               ERR DEF= 0.5
 EXTERNAL ERROR MATRIX.    NDIM= 148    NPAR= 21    ERR DEF=0.5
 ELEMENTS ABOVE DIAGONAL ARE NOT PRINTED.
  7.372e-05 
  1.471e-05  3.774e-03 
 -2.559e-05 -5.808e-05  2.185e-03 
 -2.478e-06 -8.356e-06  1.140e-06  7.161e-05 
 -3.291e-07 -7.262e-06  4.034e-07  8.189e-08  6.146e-06 
  1.568e-06  3.555e-05 -1.209e-06  1.113e-07 -2.794e-07  4.135e-05 
 -4.109e-06  1.175e-05  1.616e-06  4.913e-07  7.761e-08  1.070e-06  1.905e-04 
 -7.733e-06 -6.187e-05  3.524e-06  9.782e-07 -3.374e-09  6.400e-07  8.311e-07  3.560e-04 
 -1.058e-05 -1.471e-06  5.626e-06  6.856e-07  1.643e-07  5.522e-07  2.039e-06  2.474e-06  6.840e-06 
 -3.963e-06 -6.075e-04  7.655e-04 -1.013e-07  8.182e-07 -9.301e-06 -9.293e-06  2.110e-05  2.394e-06  3.559e-02 
  4.154e-05 -1.222e-03 -2.917e-05  4.153e-04 -1.905e-05  7.091e-05  1.395e-05  9.428e-05 -1.574e-06  1.262e-04  1.124e-01 
  4.677e-06  2.704e-03 -7.513e-05 -6.225e-06 -7.674e-04  8.242e-05  2.747e-06  2.506e-05 -1.596e-05 -3.713e-04  4.203e-03 
  4.677e-06  2.704e-03 -7.513e-05 -6.225e-06 -7.674e-04  8.242e-05  2.747e-06  2.506e-05 -1.596e-05 -3.713e-04  4.203e-03  2.052e-01 
  2.755e-05  4.909e-04 -2.404e-05  8.615e-07 -7.590e-06  4.859e-04  1.240e-05  2.430e-05  5.387e-06 -1.027e-04  1.982e-03 
  2.755e-05  4.909e-04 -2.404e-05  8.615e-07 -7.590e-06  4.859e-04  1.240e-05  2.430e-05  5.387e-06 -1.027e-04  1.982e-03  2.014e-03  2.666e-02 
  1.361e-05  1.062e-04 -9.526e-06 -9.389e-08 -2.988e-06  1.427e-05  6.372e-04  1.244e-05  3.750e-06 -1.849e-05  8.463e-04 
  1.361e-05  1.062e-04 -9.526e-06 -9.389e-08 -2.988e-06  1.427e-05  6.372e-04  1.244e-05  3.750e-06 -1.849e-05  8.463e-04  7.530e-04  3.385e-04  1.133e-02 
  4.938e-06 -7.294e-04 -1.476e-06  4.135e-06 -5.189e-06  1.392e-05 -1.359e-05  1.975e-03  8.711e-06  4.206e-04  2.119e-03 
  4.938e-06 -7.294e-04 -1.476e-06  4.135e-06 -5.189e-06  1.392e-05 -1.359e-05  1.975e-03  8.711e-06  4.206e-04  2.119e-03  1.338e-03  6.367e-04  3.012e-04  4.443e-02 
 -1.093e-05 -1.631e-04  3.754e-05 -1.074e-05  8.921e-06  5.182e-06  4.831e-05  7.390e-06  5.845e-06 -1.954e-04 -1.150e-03 
 -1.093e-05 -1.631e-04  3.754e-05 -1.074e-05  8.921e-06  5.182e-06  4.831e-05  7.390e-06  5.845e-06 -1.954e-04 -1.150e-03 -2.009e-03 -1.705e-04 -9.203e-06 -5.193e-04  7.100e-03 
  1.869e-05  5.585e-03 -5.328e-05 -2.427e-05  9.408e-06 -1.099e-05  4.014e-05 -2.686e-04 -1.595e-06 -1.344e-03 -7.561e-03 
  1.869e-05  5.585e-03 -5.328e-05 -2.427e-05  9.408e-06 -1.099e-05  4.014e-05 -2.686e-04 -1.595e-06 -1.344e-03 -7.561e-03 -1.437e-03 -1.332e-03 -6.811e-04 -5.117e-03  2.318e-03  1.777e-02 
 -8.868e-06 -9.956e-06  7.585e-06  1.430e-06  3.329e-06 -1.473e-05 -8.886e-06  7.390e-06  7.384e-07  1.014e-04 -9.642e-04 
 -8.868e-06 -9.956e-06  7.585e-06  1.430e-06  3.329e-06 -1.473e-05 -8.886e-06  7.390e-06  7.384e-07  1.014e-04 -9.642e-04 -6.825e-04 -3.211e-04 -1.314e-04  1.028e-04 -6.375e-05  1.816e-04  2.714e-04 
 -1.269e-06 -2.250e-04  2.515e-05  1.784e-06  3.218e-06 -1.597e-05 -2.452e-05 -1.473e-05 -5.874e-06  1.808e-05 -4.475e-04 
 -1.269e-06 -2.250e-04  2.515e-05  1.784e-06  3.218e-06 -1.597e-05 -2.452e-05 -1.473e-05 -5.874e-06  1.808e-05 -4.475e-04 -6.479e-04 -1.650e-04 -1.231e-04  1.128e-07  3.790e-05 -4.928e-04  1.402e-04  2.101e-03 
  1.749e-05  3.148e-06 -7.027e-06 -1.640e-07  9.210e-08  1.079e-06  3.563e-07 -1.077e-06 -2.683e-06 -2.565e-06  1.268e-05 
  1.749e-05  3.148e-06 -7.027e-06 -1.640e-07  9.210e-08  1.079e-06  3.563e-07 -1.077e-06 -2.683e-06 -2.565e-06  1.268e-05 -2.178e-05  1.565e-05  7.617e-06  7.616e-06  1.524e-07  2.451e-06 -1.969e-06  4.805e-06  1.039e-05 
 -2.638e-05 -7.346e-06  9.092e-06 -8.927e-07 -1.763e-07 -1.482e-06 -2.887e-07  1.424e-06  4.611e-06  1.643e-05 -1.967e-05 
 -2.638e-05 -7.346e-06  9.092e-06 -8.927e-07 -1.763e-07 -1.482e-06 -2.887e-07  1.424e-06  4.611e-06  1.643e-05 -1.967e-05  8.474e-06 -1.637e-05 -3.346e-06  1.509e-05  4.770e-05  3.901e-06  2.162e-06 -7.328e-06 -8.618e-06  1.967e-05 
 PARAMETER  CORRELATION COEFFICIENTS  
       NO.  GLOBAL      1      2      3      4      5      6      7      8      9     10     11     12     13     14     15     16
        1  0.77213   1.000  0.028 -0.064 -0.034 -0.015  0.028 -0.035 -0.048 -0.471 -0.002  0.014  0.001  0.020  0.015  0.003 -0.015
        2  0.72911   0.028  1.000 -0.020 -0.016 -0.048  0.090  0.014 -0.053 -0.009 -0.052 -0.059  0.097  0.049  0.016 -0.056 -0.032
        3  0.11169  -0.064 -0.020  1.000  0.003  0.003 -0.004  0.003  0.004  0.046  0.087 -0.002 -0.004 -0.003 -0.002 -0.000  0.010
        4  0.16973  -0.034 -0.016  0.003  1.000  0.004  0.002  0.004  0.006  0.031 -0.000  0.146 -0.002  0.001 -0.000  0.002 -0.015
        5  0.68515  -0.015 -0.048  0.003  0.004  1.000 -0.018  0.002 -0.000  0.025  0.002 -0.023 -0.683 -0.019 -0.011 -0.010  0.043
        6  0.48253   0.028  0.090 -0.004  0.002 -0.018  1.000  0.012  0.005  0.033 -0.008  0.033  0.028  0.463  0.021  0.010  0.010
        7  0.44539  -0.035  0.014  0.003  0.004  0.002  0.012  1.000  0.003  0.057 -0.004  0.003  0.000  0.006  0.434 -0.005  0.042
        8  0.50264  -0.048 -0.053  0.004  0.006 -0.000  0.005  0.003  1.000  0.050  0.006  0.015  0.003  0.008  0.006  0.497  0.005
        9  0.48995  -0.471 -0.009  0.046  0.031  0.025  0.033  0.057  0.050  1.000  0.005 -0.002 -0.013  0.013  0.013  0.016  0.027
       10  0.11331  -0.002 -0.052  0.087 -0.000  0.002 -0.008 -0.004  0.006  0.005  1.000  0.002 -0.004 -0.003 -0.001  0.011 -0.012
       11  0.28241   0.014 -0.059 -0.002  0.146 -0.023  0.033  0.003  0.015 -0.002  0.002  1.000  0.028  0.036  0.024  0.030 -0.041
       12  0.69061   0.001  0.097 -0.004 -0.002 -0.683  0.028  0.000  0.003 -0.013 -0.004  0.028  1.000  0.027  0.016  0.014 -0.053
       13  0.47281   0.020  0.049 -0.003  0.001 -0.019  0.463  0.006  0.008  0.013 -0.003  0.036  0.027  1.000  0.019  0.019 -0.012
       14  0.44673   0.015  0.016 -0.002 -0.000 -0.011  0.021  0.434  0.006  0.013 -0.001  0.024  0.016  0.019  1.000  0.013 -0.001
       15  0.52377   0.003 -0.056 -0.000  0.002 -0.010  0.010 -0.005  0.497  0.016  0.011  0.030  0.014  0.019  0.013  1.000 -0.029
       16  0.37149  -0.015 -0.032  0.010 -0.015  0.043  0.010  0.042  0.005  0.027 -0.012 -0.041 -0.053 -0.012 -0.001 -0.029  1.000
       17  0.75718   0.016  0.682 -0.009 -0.022  0.028 -0.013  0.022 -0.107 -0.005 -0.053 -0.169 -0.024 -0.061 -0.048 -0.182  0.206
                     1.000  0.083 -0.081  0.006  0.007
       18  0.33645  -0.063 -0.010  0.010  0.010  0.082 -0.139 -0.039  0.024  0.017  0.033 -0.175 -0.091 -0.119 -0.075  0.030 -0.046
                     0.083  1.000  0.186 -0.037  0.030
       19  0.23477  -0.003 -0.080  0.012  0.005  0.028 -0.054 -0.039 -0.017 -0.049  0.002 -0.029 -0.031 -0.022 -0.025  0.000  0.010
                    -0.081  0.186  1.000  0.033 -0.036
       20  0.67542   0.632  0.016 -0.047 -0.006  0.012  0.052  0.008 -0.018 -0.318 -0.004  0.012 -0.015  0.030  0.022  0.011  0.001
                     0.006 -0.037  0.033  1.000 -0.603
       21  0.74312  -0.693 -0.027  0.044 -0.024 -0.016 -0.052 -0.005  0.017  0.398  0.020 -0.013  0.004 -0.023 -0.007  0.016  0.128
                     0.007  0.030 -0.036 -0.603  1.000
***NLL =      -143195.76
  1) RooRealVar::          DeltaG = 0.164429 +/- 0.00856773
  2) RooRealVar::          DeltaM = 17.6915 +/- 0.061426
  3) RooRealVar::            FS_0 = 0.467549 +/- 0.0467422
  4) RooRealVar::           Gamma = 0.662372 +/- 0.0026152
  5) RooRealVar::     a0_2016TrgB = 1
  6) RooRealVar::     a1_2016TrgB = 1.49
  7) RooRealVar::     a2_2016TrgB = 2.14
  8) RooRealVar::     a3_2016TrgB = 2.22
  9) RooRealVar::     a4_2016TrgB = 2.34
 10) RooRealVar::     a5_2016TrgB = 2.48
 11) RooRealVar::     a6_2016TrgB = 2.46
 12) RooRealVar::     a7_2016TrgB = 2.37
 13) RooRealVar::     a8_2016TrgB = 3.2
 14) RooRealVar::          acpPro = 0
 15) RooRealVar::            del0 = 0
 16) RooRealVar::  delS_0-delperp = 2.34802 +/- 0.18861
 17) RooRealVar::    delpara-del0 = 3.07096 +/- 0.0842611
 18) RooRealVar::    delperp-del0 = 2.58044 +/- 0.133278
 19) RooRealVar::          dp0_OS = 0.0091
 20) RooRealVar::         dp0_SSK = -0
 21) RooRealVar::          dp1_OS = 0.0037
 22) RooRealVar::         dp1_SSK = 0
 23) RooCategory:: dummyBlindState = Blind(idx = 1)

 24) RooRealVar::      eta_bar_OS = 0.3793
 25) RooRealVar::     eta_bar_SSK = 0.4272
 26) RooRealVar::              g1 = 0.167
 27) RooRealVar::          lambda = 1.02578 +/- 0.0164699
 28) RooRealVar::              m0 = 0.9499
 29) RooRealVar::          m0_phi = 1.0195
 30) RooRealVar::              p0 = 0.01206
 31) RooRealVar::           p0_OS = 0.3832
 32) RooRealVar::          p0_SSK = 0.4378
 33) RooRealVar::              p1 = 0.8793
 34) RooRealVar::           p1_OS = 0.916
 35) RooRealVar::          p1_SSK = 1.0385
 36) RooRealVar::              p2 = 0
 37) RooRealVar::            phis = -0.221548 +/- 0.0458396
 38) RooRealVar::          res_mu = 0
 39) RooRealVar::            rg21 = 3.05
 40) RooRealVar::              sc = 1
 41) RooRealVar::       width_phi = 0.004266
 42) RooRealVar::          |A0|^2 = 0.518981 +/- 0.00322271
 43) RooRealVar::       |Aperp|^2 = 0.246172 +/- 0.00443486
 44) RooRealVar::            FS_1 = 0.0379522 +/- 0.00846215
 45) RooRealVar::  delS_1-delperp = 1.63507 +/- 0.33507
 46) RooRealVar::            FS_2 = 0.00418554 +/- 0.00247904
 47) RooRealVar::  delS_2-delperp = 1.04634 +/- 0.452567
 48) RooRealVar::            FS_3 = 0.00995378 +/- 0.00643035
 49) RooRealVar::  delS_3-delperp = -0.261233 +/- 0.163257
 50) RooRealVar::            FS_4 = 0.0623113 +/- 0.0138006
 51) RooRealVar::  delS_4-delperp = -0.489156 +/- 0.10645
 52) RooRealVar::            FS_5 = 0.116257 +/- 0.0188679
 53) RooRealVar::  delS_5-delperp = -1.17962 +/- 0.210742
 54) RooRealVar::     a0_2016TrgU = 1
 55) RooRealVar::     a1_2016TrgU = 0.975
 56) RooRealVar::     a2_2016TrgU = 1.057
 57) RooRealVar::     a3_2016TrgU = 0.981
 58) RooRealVar::     a4_2016TrgU = 0.979
 59) RooRealVar::     a5_2016TrgU = 0.995
 60) RooRealVar::     a6_2016TrgU = 1.028
 61) RooRealVar::     a7_2016TrgU = 1.01
 62) RooRealVar::     a8_2016TrgU = 0.73
