%!PS-Adobe-2.0 EPSF-2.0
%%BoundingBox:  0 0 567 520
%%Title: acc.eps: 
%%Creator: ROOT Version 6.02/03
%%CreationDate: Thu Jun 29 18:40:56 2017
%%EndComments
%%BeginProlog
80 dict begin
/s {stroke} def /l {lineto} def /m {moveto} def /t {translate} def
/r {rotate} def /rl {roll}  def /R {repeat} def
/d {rlineto} def /rm {rmoveto} def /gr {grestore} def /f {eofill} def
/c {setrgbcolor} def /black {0 setgray} def /sd {setdash} def
/cl {closepath} def /sf {scalefont setfont} def /lw {setlinewidth} def
/box {m dup 0 exch d exch 0 d 0 exch neg d cl} def
/NC{systemdict begin initclip end}def/C{NC box clip newpath}def
/bl {box s} def /bf {box f} def /Y { 0 exch d} def /X { 0 d} def 
/K {{pop pop 0 moveto} exch kshow} bind def
/ita {/ang 15 def gsave [1 0 ang dup sin exch cos div 1 0 0] concat} def 
/mp {newpath /y exch def /x exch def} def
/side {[w .77 mul w .23 mul] .385 w mul sd w 0 l currentpoint t -144 r} def
/mr {mp x y w2 0 360 arc} def /m24 {mr s} def /m20 {mr f} def
/mb {mp x y w2 add m w2 neg 0 d 0 w neg d w 0 d 0 w d cl} def
/mt {mp x y w2 add m w2 neg w neg d w 0 d cl} def
/m21 {mb f} def /m25 {mb s} def /m22 {mt f} def /m26{mt s} def
/m23 {mp x y w2 sub m w2 w d w neg 0 d cl f} def
/m27 {mp x y w2 add m w3 neg w2 neg d w3 w2 neg d w3 w2 d cl s} def
/m28 {mp x w2 sub y w2 sub w3 add m w3 0 d  0 w3 neg d w3 0 d 0 w3 d w3 0 d  0 w3 d w3 neg 0 d 0 w3 d w3 neg 0 d 0 w3 neg d w3 neg 0 d cl s } def
/m29 {mp gsave x w2 sub y w2 add w3 sub m currentpoint t 4 {side} repeat cl fill gr} def
/m30 {mp gsave x w2 sub y w2 add w3 sub m currentpoint t 4 {side} repeat cl s gr} def
/m31 {mp x y w2 sub m 0 w d x w2 sub y m w 0 d x w2 sub y w2 add m w w neg d x w2 sub y w2 sub m w w d s} def
/m32 {mp x y w2 sub m w2 w d w neg 0 d cl s} def
/m33 {mp x y w2 add m w3 neg w2 neg d w3 w2 neg d w3 w2 d cl f} def
/m34 {mp x w2 sub y w2 sub w3 add m w3 0 d  0 w3 neg d w3 0 d 0 w3 d w3 0 d  0 w3 d w3 neg 0 d 0 w3 d w3 neg 0 d 0 w3 neg d w3 neg 0 d cl f } def
/m2 {mp x y w2 sub m 0 w d x w2 sub y m w 0 d s} def
/m5 {mp x w2 sub y w2 sub m w w d x w2 sub y w2 add m w w neg d s} def
/reEncode {exch findfont dup length dict begin {1 index /FID eq  {pop pop} {def} ifelse } forall /Encoding exch def currentdict end dup /FontName get exch definefont pop } def [/Times-Bold /Times-Italic /Times-BoldItalic /Helvetica /Helvetica-Oblique
 /Helvetica-Bold /Helvetica-BoldOblique /Courier /Courier-Oblique /Courier-Bold /Courier-BoldOblique /Times-Roman /AvantGarde-Book /AvantGarde-BookOblique /AvantGarde-Demi /AvantGarde-DemiOblique /Bookman-Demi /Bookman-DemiItalic /Bookman-Light
 /Bookman-LightItalic /Helvetica-Narrow /Helvetica-Narrow-Bold /Helvetica-Narrow-BoldOblique /Helvetica-Narrow-Oblique /NewCenturySchlbk-Roman /NewCenturySchlbk-Bold /NewCenturySchlbk-BoldItalic /NewCenturySchlbk-Italic /Palatino-Bold
 /Palatino-BoldItalic /Palatino-Italic /Palatino-Roman ] {ISOLatin1Encoding reEncode } forall
%%EndProlog
%%BeginSetup
%%EndSetup
newpath  gsave  .25 .25 scale  gsave  0 0 t black[  ] 0 sd 3 lw 1 1 1 c 2268 2079 0 0 bf black 1 1 1 c 2268 1559 0 520 bf black 1 1 1 c 1927 1325 227 676 bf black 1927 1325 227 676 bl 1 1 1 c 1927 1325 227 676 bf black 1927 1325 227 676 bl 227 676 m
 1927 X s
 gsave  2268 1559 0 520 C 1958.19 573.446 t 0 r /Helvetica findfont 52.1859 sf 0 0 m (time [ps]) show NC gr  461 715 m -39 Y s 526 695 m -19 Y s 591 695 m -19 Y s 657 695 m -19 Y s 722 715 m -39 Y s 787 695 m -19 Y s 852 695 m -19 Y s 917 695 m -19 Y
 s 982 715 m -39 Y s 1047 695 m -19 Y s 1112 695 m -19 Y s 1178 695 m -19 Y s 1243 715 m -39 Y s 1308 695 m -19 Y s 1373 695 m -19 Y s 1438 695 m -19 Y s 1503 715 m -39 Y s 1568 695 m -19 Y s 1633 695 m -19 Y s 1698 695 m -19 Y s 1764 715 m -39 Y s
 1829 695 m -19 Y s 1894 695 m -19 Y s 1959 695 m -19 Y s 2024 715 m -39 Y s 461 715 m -39 Y s 396 695 m -19 Y s 331 695 m -19 Y s 266 695 m -19 Y s 2024 715 m -39 Y s 2089 695 m -19 Y s 2154 695 m -19 Y s
 gsave  2268 1559 0 520 C 443.117 625.577 t 0 r /Helvetica findfont 52.1859 sf 0 0 m (2) show NC gr 
 gsave  2268 1559 0 520 C 703.774 625.577 t 0 r /Helvetica findfont 52.1859 sf 0 0 m (4) show NC gr 
 gsave  2268 1559 0 520 C 964.431 625.577 t 0 r /Helvetica findfont 52.1859 sf 0 0 m (6) show NC gr 
 gsave  2268 1559 0 520 C 1225.09 625.577 t 0 r /Helvetica findfont 52.1859 sf 0 0 m (8) show NC gr 
 gsave  2268 1559 0 520 C 1472.71 625.577 t 0 r /Helvetica findfont 52.1859 sf 0 0 m (10) show NC gr 
 gsave  2268 1559 0 520 C 1733.37 625.577 t 0 r /Helvetica findfont 52.1859 sf 0 0 m (12) show NC gr 
 gsave  2268 1559 0 520 C 1994.03 625.577 t 0 r /Helvetica findfont 52.1859 sf 0 0 m (14) show NC gr  227 676 m 1325 Y s
 gsave  2268 1559 0 520 C 110.779 1668.21 t 90 r /Helvetica findfont 52.1859 sf 0 0 m (Events / \( 0.1 \)) show NC gr  256 792 m -29 X s 256 863 m -29 X s 256 913 m -29 X s 256 952 m -29 X s 256 984 m -29 X s 256 1011 m -29 X s 256 1034 m -29 X s 256
 1054 m -29 X s 285 1073 m -58 X s
 gsave  2268 1559 0 520 C 188.976 1078.47 t 0 r /Helvetica findfont 32.6162 sf 0 0 m (3) show NC gr 
 gsave  2268 1559 0 520 C 130.329 1049.14 t 0 r /Helvetica findfont 52.1859 sf 0 0 m (10) show NC gr  256 1194 m -29 X s 256 1264 m -29 X s 256 1315 m -29 X s 256 1353 m -29 X s 256 1385 m -29 X s 256 1412 m -29 X s 256 1435 m -29 X s 256 1456 m -29
 X s 285 1474 m -58 X s
 gsave  2268 1559 0 520 C 188.976 1475.97 t 0 r /Helvetica findfont 32.6162 sf 0 0 m (4) show NC gr 
 gsave  2268 1559 0 520 C 130.329 1449.91 t 0 r /Helvetica findfont 52.1859 sf 0 0 m (10) show NC gr  256 1595 m -29 X s 256 1666 m -29 X s 256 1716 m -29 X s 256 1755 m -29 X s 256 1787 m -29 X s 256 1814 m -29 X s 256 1837 m -29 X s 256 1857 m -29
 X s 285 1876 m -58 X s
 gsave  2268 1559 0 520 C 188.976 1879.99 t 0 r /Helvetica findfont 32.6162 sf 0 0 m (5) show NC gr 
 gsave  2268 1559 0 520 C 130.329 1850.67 t 0 r /Helvetica findfont 52.1859 sf 0 0 m (10) show NC gr  256 1997 m -29 X s 233 1974 m -6 X s 227 1968 m 13 Y s 233 1974 m 7 X s 240 1968 m 13 Y s 233 1974 m 1 Y s 227 1975 m 13 X s 233 1974 m s 227 1974 m
 13 X s 246 1992 m -6 X s 240 1985 m 13 Y s 246 1992 m 7 X s 253 1985 m 13 Y s 246 1992 m s 240 1992 m 13 X s 246 1992 m -1 Y s 240 1991 m 13 X s 259 1989 m -6 X s 253 1982 m 13 Y s 259 1989 m 7 X s 266 1982 m 13 Y s 259 1989 m s 253 1989 m 13 X s
 259 1989 m -1 Y s 253 1988 m 13 X s 272 1982 m -6 X s 266 1976 m 13 Y s 272 1982 m 7 X s 279 1976 m 13 Y s 272 1982 m 1 Y s 266 1983 m 13 X s 272 1982 m s 266 1982 m 13 X s 285 1973 m -6 X s 279 1967 m 13 Y s 285 1973 m 7 X s 292 1967 m 13 Y s 285
 1973 m s 279 1973 m 13 X s 285 1973 m s 279 1973 m 13 X s 298 1963 m -6 X s 292 1956 m 13 Y s 298 1963 m 7 X s 305 1956 m 13 Y s 298 1963 m s 292 1963 m 13 X s 298 1963 m -1 Y s 292 1962 m 13 X s 311 1953 m -6 X s 305 1946 m 13 Y s 311 1953 m 7 X s
 318 1946 m 13 Y s 311 1953 m s 305 1953 m 13 X s 311 1953 m -1 Y s 305 1952 m 13 X s 324 1942 m -6 X s 318 1936 m 13 Y s 324 1942 m 7 X s 331 1936 m 13 Y s 324 1942 m 1 Y s 318 1943 m 13 X s 324 1942 m s 318 1942 m 13 X s 337 1931 m -6 X s 331 1924
 m 13 Y s 337 1931 m 7 X s 344 1924 m 13 Y s 337 1931 m s 331 1931 m 13 X s 337 1931 m -1 Y s 331 1930 m 13 X s 351 1919 m -7 X s 344 1912 m 13 Y s 351 1919 m 6 X s 357 1912 m 13 Y s 351 1919 m s 344 1919 m 13 X s 351 1919 m -1 Y s 344 1918 m 13 X s
 364 1906 m -7 X s 357 1900 m 13 Y s 364 1906 m 6 X s 370 1900 m 13 Y s 364 1906 m 1 Y s 357 1907 m 13 X s 364 1906 m s 357 1906 m 13 X s 377 1897 m -7 X s 370 1890 m 13 Y s 377 1897 m 6 X s 383 1890 m 13 Y s 377 1897 m s 370 1897 m 13 X s 377 1897 m
 -1 Y s 370 1896 m 13 X s 390 1886 m -7 X s 383 1880 m 13 Y s 390 1886 m 6 X s 396 1880 m 13 Y s 390 1886 m 1 Y s 383 1887 m 13 X s 390 1886 m -1 Y s 383 1885 m 13 X s 403 1874 m -7 X s 396 1867 m 13 Y s 403 1874 m 6 X s 409 1867 m 13 Y s 403 1874 m
 s 396 1874 m 13 X s 403 1874 m -1 Y s 396 1873 m 13 X s 416 1862 m -7 X s 409 1855 m 13 Y s 416 1862 m 6 X s 422 1855 m 13 Y s 416 1862 m s 409 1862 m 13 X s 416 1862 m -1 Y s 409 1861 m 13 X s 429 1852 m -7 X s 422 1845 m 13 Y s 429 1852 m 6 X s
 435 1845 m 13 Y s 429 1852 m s 422 1852 m 13 X s 429 1852 m -1 Y s 422 1851 m 13 X s 442 1840 m -7 X s 435 1833 m 13 Y s 442 1840 m 6 X s 448 1833 m 13 Y s 442 1840 m s 435 1840 m 13 X s 442 1840 m -1 Y s 435 1839 m 13 X s 455 1829 m -7 X s 448 1823
 m 13 Y s 455 1829 m 6 X s 461 1823 m 13 Y s 455 1829 m 1 Y s 448 1830 m 13 X s 455 1829 m s 448 1829 m 13 X s 468 1817 m -7 X s 461 1811 m 13 Y s 468 1817 m 6 X s 474 1811 m 13 Y s 468 1817 m 1 Y s 461 1818 m 13 X s 468 1817 m s 461 1817 m 13 X s
 481 1806 m -7 X s 474 1800 m 13 Y s 481 1806 m 6 X s 487 1800 m 13 Y s 481 1806 m 1 Y s 474 1807 m 13 X s 481 1806 m s 474 1806 m 13 X s 494 1795 m -7 X s 487 1788 m 13 Y s 494 1795 m 6 X s 500 1788 m 13 Y s 494 1795 m s 487 1795 m 13 X s 494 1795 m
 -1 Y s 487 1794 m 13 X s 507 1785 m -7 X s 500 1779 m 13 Y s 507 1785 m 6 X s 513 1779 m 13 Y s 507 1785 m 1 Y s 500 1786 m 13 X s 507 1785 m s 500 1785 m 13 X s 520 1774 m -7 X s 513 1767 m 13 Y s 520 1774 m 6 X s 526 1767 m 13 Y s 520 1774 m 1 Y s
 513 1775 m 13 X s 520 1774 m -1 Y s 513 1773 m 13 X s 533 1761 m -7 X s 526 1755 m 13 Y s 533 1761 m 6 X s 539 1755 m 13 Y s 533 1761 m 1 Y s 526 1762 m 13 X s 533 1761 m s 526 1761 m 13 X s 546 1749 m -7 X s 539 1742 m 13 Y s 546 1749 m 6 X s 552
 1742 m 13 Y s 546 1749 m 1 Y s 539 1750 m 13 X s 546 1749 m -1 Y s 539 1748 m 13 X s 559 1740 m -7 X s 552 1734 m 13 Y s 559 1740 m 6 X s 565 1734 m 13 Y s 559 1740 m 1 Y s 552 1741 m 13 X s 559 1740 m -1 Y s 552 1739 m 13 X s 572 1728 m -7 X s 565
 1721 m 13 Y s 572 1728 m 6 X s 578 1721 m 13 Y s 572 1728 m 1 Y s 565 1729 m 13 X s 572 1728 m -1 Y s 565 1727 m 13 X s 585 1716 m -7 X s 578 1709 m 13 Y s 585 1716 m 6 X s 591 1709 m 13 Y s 585 1716 m s 578 1716 m 13 X s 585 1716 m -1 Y s 578 1715
 m 13 X s 598 1704 m -7 X s 591 1698 m 13 Y s 598 1704 m 6 X s 604 1698 m 13 Y s 598 1704 m 1 Y s 591 1705 m 13 X s 598 1704 m -1 Y s 591 1703 m 13 X s 611 1694 m -7 X s 604 1687 m 13 Y s 611 1694 m 6 X s 617 1687 m 13 Y s 611 1694 m 1 Y s 604 1695 m
 13 X s 611 1694 m -1 Y s 604 1693 m 13 X s 624 1681 m -7 X s 617 1674 m 13 Y s 624 1681 m 7 X s 631 1674 m 13 Y s 624 1681 m 1 Y s 617 1682 m 14 X s 624 1681 m -1 Y s 617 1680 m 14 X s 637 1670 m -6 X s 631 1664 m 13 Y s 637 1670 m 7 X s 644 1664 m
 13 Y s 637 1670 m 1 Y s 631 1671 m 13 X s 637 1670 m -1 Y s 631 1669 m 13 X s 650 1659 m -6 X s 644 1652 m 13 Y s 650 1659 m 7 X s 657 1652 m 13 Y s 650 1659 m 1 Y s 644 1660 m 13 X s 650 1659 m -1 Y s 644 1658 m 13 X s 663 1645 m -6 X s 657 1638 m
 13 Y s 663 1645 m 7 X s 670 1638 m 13 Y s 663 1645 m 1 Y s 657 1646 m 13 X s 663 1645 m -1 Y s 657 1644 m 13 X s 676 1635 m -6 X s 670 1628 m 13 Y s 676 1635 m 7 X s 683 1628 m 13 Y s 676 1635 m 1 Y s 670 1636 m 13 X s 676 1635 m -1 Y s 670 1634 m
 13 X s 689 1623 m -6 X s 683 1617 m 13 Y s 689 1623 m 7 X s 696 1617 m 13 Y s 689 1623 m 1 Y s 683 1624 m 13 X s 689 1623 m -1 Y s 683 1622 m 13 X s 702 1613 m -6 X s 696 1607 m 13 Y s 702 1613 m 7 X s 709 1607 m 13 Y s 702 1613 m 1 Y s 696 1614 m
 13 X s 702 1613 m -1 Y s 696 1612 m 13 X s 715 1599 m -6 X s 709 1593 m 13 Y s 715 1599 m 7 X s 722 1593 m 13 Y s 715 1599 m 2 Y s 709 1601 m 13 X s 715 1599 m -1 Y s 709 1598 m 13 X s 728 1590 m -6 X s 722 1584 m 13 Y s 728 1590 m 7 X s 735 1584 m
 13 Y s 728 1590 m 2 Y s 722 1592 m 13 X s 728 1590 m -1 Y s 722 1589 m 13 X s 741 1581 m -6 X s 735 1574 m 13 Y s 741 1581 m 7 X s 748 1574 m 13 Y s 741 1581 m 1 Y s 735 1582 m 13 X s 741 1581 m -2 Y s 735 1579 m 13 X s 754 1568 m -6 X s 748 1562 m
 13 Y s 754 1568 m 7 X s 761 1562 m 13 Y s 754 1568 m 2 Y s 748 1570 m 13 X s 754 1568 m -1 Y s 748 1567 m 13 X s 767 1556 m -6 X s 761 1549 m 13 Y s 767 1556 m 7 X s 774 1549 m 13 Y s 767 1556 m 1 Y s 761 1557 m 13 X s 767 1556 m -2 Y s 761 1554 m
 13 X s 780 1545 m -6 X s 774 1538 m 13 Y s 780 1545 m 7 X s 787 1538 m 13 Y s 780 1545 m 1 Y s 774 1546 m 13 X s 780 1545 m -2 Y s 774 1543 m 13 X s 793 1530 m -6 X s 787 1523 m 13 Y s 793 1530 m 7 X s 800 1523 m 13 Y s 793 1530 m 1 Y s 787 1531 m
 13 X s 793 1530 m -2 Y s 787 1528 m 13 X s 806 1520 m -6 X s 800 1513 m 13 Y s 806 1520 m 7 X s 813 1513 m 13 Y s 806 1520 m 1 Y s 800 1521 m 13 X s 806 1520 m -2 Y s 800 1518 m 13 X s 819 1510 m -6 X s 813 1504 m 13 Y s 819 1510 m 7 X s 826 1504 m
 13 Y s 819 1510 m 2 Y s 813 1512 m 13 X s 819 1510 m -1 Y s 813 1509 m 13 X s 832 1495 m -6 X s 826 1489 m 13 Y s 832 1495 m 7 X s 839 1489 m 13 Y s 832 1495 m 2 Y s 826 1497 m 13 X s 832 1495 m -1 Y s 826 1494 m 13 X s 845 1486 m -6 X s 839 1480 m
 13 Y s 845 1486 m 7 X s 852 1480 m 13 Y s 845 1486 m 2 Y s 839 1488 m 13 X s 845 1486 m -1 Y s 839 1485 m 13 X s 858 1477 m -6 X s 852 1470 m 13 Y s 858 1477 m 7 X s 865 1470 m 13 Y s 858 1477 m 1 Y s 852 1478 m 13 X s 858 1477 m -2 Y s 852 1475 m
 13 X s 871 1463 m -6 X s 865 1456 m 13 Y s 871 1463 m 7 X s 878 1456 m 13 Y s 871 1463 m 2 Y s 865 1465 m 13 X s 871 1463 m -2 Y s 865 1461 m 13 X s 884 1454 m -6 X s 878 1448 m 13 Y s 884 1454 m 7 X s 891 1448 m 13 Y s 884 1454 m 2 Y s 878 1456 m
 13 X s 884 1454 m -1 Y s 878 1453 m 13 X s 898 1437 m -7 X s 891 1431 m 13 Y s 898 1437 m 6 X s 904 1431 m 13 Y s 898 1437 m 2 Y s 891 1439 m 13 X s 898 1437 m -2 Y s 891 1435 m 13 X s 911 1427 m -7 X s 904 1421 m 13 Y s 911 1427 m 6 X s 917 1421 m
 13 Y s 911 1427 m 2 Y s 904 1429 m 13 X s 911 1427 m -2 Y s 904 1425 m 13 X s 924 1414 m -7 X s 917 1408 m 13 Y s 924 1414 m 6 X s 930 1408 m 13 Y s 924 1414 m 2 Y s 917 1416 m 13 X s 924 1414 m -2 Y s 917 1412 m 13 X s 937 1403 m -7 X s 930 1396 m
 13 Y s 937 1403 m 6 X s 943 1396 m 13 Y s 937 1403 m 2 Y s 930 1405 m 13 X s 937 1403 m -2 Y s 930 1401 m 13 X s 950 1392 m -7 X s 943 1386 m 13 Y s 950 1392 m 6 X s 956 1386 m 13 Y s 950 1392 m 3 Y s 943 1395 m 13 X s 950 1392 m -2 Y s 943 1390 m
 13 X s 963 1383 m -7 X s 956 1377 m 13 Y s 963 1383 m 6 X s 969 1377 m 13 Y s 963 1383 m 2 Y s 956 1385 m 13 X s 963 1383 m -2 Y s 956 1381 m 13 X s 976 1371 m -7 X s 969 1364 m 13 Y s 976 1371 m 6 X s 982 1364 m 13 Y s 976 1371 m 2 Y s 969 1373 m
 13 X s 976 1371 m -2 Y s 969 1369 m 13 X s 989 1355 m -7 X s 982 1349 m 13 Y s 989 1355 m 6 X s 995 1349 m 13 Y s 989 1355 m 3 Y s 982 1358 m 13 X s 989 1355 m -2 Y s 982 1353 m 13 X s 1002 1350 m -7 X s 995 1344 m 13 Y s 1002 1350 m 6 X s 1008 1344
 m 13 Y s 1002 1350 m 3 Y s 995 1353 m 13 X s 1002 1350 m -2 Y s 995 1348 m 13 X s 1015 1332 m -7 X s 1008 1325 m 13 Y s 1015 1332 m 6 X s 1021 1325 m 13 Y s 1015 1332 m 3 Y s 1008 1335 m 13 X s 1015 1332 m -3 Y s 1008 1329 m 13 X s 1028 1325 m -7 X
 s 1021 1318 m 13 Y s 1028 1325 m 6 X s 1034 1318 m 13 Y s 1028 1325 m 3 Y s 1021 1328 m 13 X s 1028 1325 m -3 Y s 1021 1322 m 13 X s 1041 1305 m -7 X s 1034 1299 m 13 Y s 1041 1305 m 6 X s 1047 1299 m 13 Y s 1041 1305 m 3 Y s 1034 1308 m 13 X s 1041
 1305 m -2 Y s 1034 1303 m 13 X s 1054 1296 m -7 X s 1047 1290 m 13 Y s 1054 1296 m 6 X s 1060 1290 m 13 Y s 1054 1296 m 3 Y s 1047 1299 m 13 X s 1054 1296 m -3 Y s 1047 1293 m 13 X s 1067 1284 m -7 X s 1060 1277 m 13 Y s 1067 1284 m 6 X s 1073 1277
 m 13 Y s 1067 1284 m 3 Y s 1060 1287 m 13 X s 1067 1284 m -3 Y s 1060 1281 m 13 X s 1080 1282 m -7 X s 1073 1276 m 13 Y s 1080 1282 m 6 X s 1086 1276 m 13 Y s 1080 1282 m 3 Y s 1073 1285 m 13 X s 1080 1282 m -3 Y s 1073 1279 m 13 X s 1093 1265 m -7
 X s 1086 1259 m 13 Y s 1093 1265 m 6 X s 1099 1259 m 13 Y s 1093 1265 m 3 Y s 1086 1268 m 13 X s 1093 1265 m -3 Y s 1086 1262 m 13 X s 1106 1245 m -7 X s 1099 1238 m 13 Y s 1106 1245 m 6 X s 1112 1238 m 13 Y s 1106 1245 m 3 Y s 1099 1248 m 13 X s
 1106 1245 m -4 Y s 1099 1241 m 13 X s 1119 1241 m -7 X s 1112 1234 m 13 Y s 1119 1241 m 6 X s 1125 1234 m 13 Y s 1119 1241 m 3 Y s 1112 1244 m 13 X s 1119 1241 m -3 Y s 1112 1238 m 13 X s 1132 1233 m -7 X s 1125 1226 m 13 Y s 1132 1233 m 6 X s 1138
 1226 m 13 Y s 1132 1233 m 3 Y s 1125 1236 m 13 X s 1132 1233 m -4 Y s 1125 1229 m 13 X s 1145 1217 m -7 X s 1138 1210 m 14 Y s 1145 1217 m 6 X s 1151 1210 m 14 Y s 1145 1217 m 4 Y s 1138 1221 m 13 X s 1145 1217 m -4 Y s 1138 1213 m 13 X s 1158 1204
 m -7 X s 1151 1198 m 13 Y s 1158 1204 m 7 X s 1165 1198 m 13 Y s 1158 1204 m 4 Y s 1151 1208 m 14 X s 1158 1204 m -3 Y s 1151 1201 m 14 X s 1171 1193 m -6 X s 1165 1186 m 14 Y s 1171 1193 m 7 X s 1178 1186 m 14 Y s 1171 1193 m 4 Y s 1164 1197 m 14 X
 s 1171 1193 m -4 Y s 1164 1189 m 14 X s 1184 1184 m -6 X s 1178 1177 m 13 Y s 1184 1184 m 7 X s 1191 1177 m 13 Y s 1184 1184 m 4 Y s 1178 1188 m 13 X s 1184 1184 m -4 Y s 1178 1180 m 13 X s 1197 1171 m -6 X s 1191 1165 m 13 Y s 1197 1171 m 7 X s
 1204 1165 m 13 Y s 1197 1171 m 5 Y s 1191 1176 m 13 X s 1197 1171 m -4 Y s 1191 1167 m 13 X s 1210 1159 m -6 X s 1204 1153 m 13 Y s 1210 1159 m 7 X s 1217 1153 m 13 Y s 1210 1159 m 5 Y s 1204 1164 m 13 X s 1210 1159 m -4 Y s 1204 1155 m 13 X s 1223
 1149 m -6 X s 1217 1142 m 13 Y s 1223 1149 m 7 X s 1230 1142 m 13 Y s 1223 1149 m 4 Y s 1217 1153 m 13 X s 1223 1149 m -5 Y s 1217 1144 m 13 X s 1236 1136 m -6 X s 1230 1129 m 13 Y s 1236 1136 m 7 X s 1243 1129 m 13 Y s 1236 1136 m 4 Y s 1230 1140 m
 13 X s 1236 1136 m -5 Y s 1230 1131 m 13 X s 1249 1127 m -6 X s 1243 1121 m 13 Y s 1249 1127 m 7 X s 1256 1121 m 13 Y s 1249 1127 m 5 Y s 1243 1132 m 13 X s 1249 1127 m -5 Y s 1243 1122 m 13 X s 1262 1113 m -6 X s 1256 1106 m 13 Y s 1262 1113 m 7 X
 s 1269 1106 m 13 Y s 1262 1113 m 5 Y s 1256 1118 m 13 X s 1262 1113 m -5 Y s 1256 1108 m 13 X s 1275 1091 m -6 X s 1269 1084 m 13 Y s 1275 1091 m 7 X s 1282 1084 m 13 Y s 1275 1091 m 5 Y s 1269 1096 m 13 X s 1275 1091 m -6 Y s 1269 1085 m 13 X s
 1288 1082 m -6 X s 1282 1075 m 13 Y s 1288 1082 m 7 X s 1295 1075 m 13 Y s 1288 1082 m 5 Y s 1282 1087 m 13 X s 1288 1082 m -6 Y s 1282 1076 m 13 X s 1301 1078 m -6 X s 1295 1071 m 13 Y s 1301 1078 m 7 X s 1308 1071 m 13 Y s 1301 1078 m 5 Y s 1295
 1083 m 13 X s 1301 1078 m -6 Y s 1295 1072 m 13 X s 1314 1061 m -6 X s 1308 1054 m 13 Y s 1314 1061 m 7 X s 1321 1054 m 13 Y s 1314 1061 m 5 Y s 1308 1066 m 13 X s 1314 1061 m -6 Y s 1308 1055 m 13 X s 1327 1053 m -6 X s 1321 1046 m 13 Y s 1327 1053
 m 7 X s 1334 1046 m 13 Y s 1327 1053 m 5 Y s 1321 1058 m 13 X s 1327 1053 m -6 Y s 1321 1047 m 13 X s 1340 1045 m -6 X s 1334 1038 m 13 Y s 1340 1045 m 7 X s 1347 1038 m 13 Y s 1340 1045 m 5 Y s 1334 1050 m 13 X s 1340 1045 m -6 Y s 1334 1039 m 13 X
 s 1353 1032 m -6 X s 1347 1025 m 13 Y s 1353 1032 m 7 X s 1360 1025 m 13 Y s 1353 1032 m 6 Y s 1347 1038 m 13 X s 1353 1032 m -6 Y s 1347 1026 m 13 X s 1366 1024 m -6 X s 1360 1017 m 13 Y s 1366 1024 m 7 X s 1373 1017 m 13 Y s 1366 1024 m 6 Y s 1360
 1030 m 13 X s 1366 1024 m -6 Y s 1360 1018 m 13 X s 1379 1009 m -6 X s 1373 1002 m 13 Y s 1379 1009 m 7 X s 1386 1002 m 13 Y s 1379 1009 m 7 Y s 1373 1016 m 13 X s 1379 1009 m -7 Y s 1373 1002 m 13 X s 1392 990 m -6 X s 1386 984 m 13 Y s 1392 990 m
 7 X s 1399 984 m 13 Y s 1392 990 m 7 Y s 1386 997 m 13 X s 1392 990 m -7 Y s 1386 983 m 13 X s 1405 983 m -6 X s 1399 977 m 13 Y s 1405 983 m 7 X s 1412 977 m 13 Y s 1405 983 m 7 Y s 1399 990 m 13 X s 1405 983 m -7 Y s 1399 976 m 13 X s 1418 972 m
 -6 X s 1412 965 m 13 Y s 1418 972 m 7 X s 1425 965 m 13 Y s 1418 972 m 7 Y s 1412 979 m 13 X s 1418 972 m -8 Y s 1412 964 m 13 X s 1431 966 m -6 X s 1425 959 m 13 Y s 1431 966 m 7 X s 1438 959 m 13 Y s 1431 966 m 7 Y s 1425 973 m 13 X s 1431 966 m
 -8 Y s 1425 958 m 13 X s 1445 948 m -7 X s 1438 941 m 13 Y s 1445 948 m 6 X s 1451 941 m 13 Y s 1445 948 m 8 Y s 1438 956 m 13 X s 1445 948 m -8 Y s 1438 940 m 13 X s 1458 934 m -7 X s 1451 928 m 13 Y s 1458 934 m 6 X s 1464 928 m 13 Y s 1458 934 m
 9 Y s 1451 943 m 13 X s 1458 934 m -8 Y s 1451 926 m 13 X s 1471 929 m -7 X s 1464 923 m 13 Y s 1471 929 m 6 X s 1477 923 m 13 Y s 1471 929 m 9 Y s 1464 938 m 13 X s 1471 929 m -8 Y s 1464 921 m 13 X s 1484 909 m -7 X s 1477 903 m 13 Y s 1484 909 m
 6 X s 1490 903 m 13 Y s 1484 909 m 9 Y s 1477 918 m 13 X s 1484 909 m -9 Y s 1477 900 m 13 X s 1497 878 m -7 X s 1490 872 m 13 Y s 1497 878 m 6 X s 1503 872 m 13 Y s 1497 878 m 10 Y s 1490 888 m 13 X s 1497 878 m -9 Y s 1490 869 m 13 X s 1510 897 m
 -7 X s 1503 891 m 13 Y s 1510 897 m 6 X s 1516 891 m 13 Y s 1510 897 m 9 Y s 1503 906 m 13 X s 1510 897 m -9 Y s 1503 888 m 13 X s 1523 892 m -7 X s 1516 885 m 13 Y s 1523 892 m 6 X s 1529 885 m 13 Y s 1523 892 m 9 Y s 1516 901 m 13 X s 1523 892 m
 -9 Y s 1516 883 m 13 X s 1536 852 m -7 X s 1529 845 m 13 Y s 1536 852 m 6 X s 1542 845 m 13 Y s 1536 852 m 10 Y s 1529 862 m 13 X s 1536 852 m -11 Y s 1529 841 m 13 X s 1549 862 m -7 X s 1542 856 m 13 Y s 1549 862 m 6 X s 1555 856 m 13 Y s 1549 862
 m 10 Y s 1542 872 m 13 X s 1549 862 m -10 Y s 1542 852 m 13 X s 1562 846 m -7 X s 1555 840 m 13 Y s 1562 846 m 6 X s 1568 840 m 13 Y s 1562 846 m 11 Y s 1555 857 m 13 X s 1562 846 m -10 Y s 1555 836 m 13 X s 1575 837 m -7 X s 1568 831 m 13 Y s 1575
 837 m 6 X s 1581 831 m 13 Y s 1575 837 m 11 Y s 1568 848 m 13 X s 1575 837 m -11 Y s 1568 826 m 13 X s 1588 825 m -7 X s 1581 818 m 13 Y s 1588 825 m 6 X s 1594 818 m 13 Y s 1588 825 m 11 Y s 1581 836 m 13 X s 1588 825 m -11 Y s 1581 814 m 13 X s
 1601 816 m -7 X s 1594 809 m 13 Y s 1601 816 m 6 X s 1607 809 m 13 Y s 1601 816 m 11 Y s 1594 827 m 13 X s 1601 816 m -12 Y s 1594 804 m 13 X s 1614 798 m -7 X s 1607 792 m 13 Y s 1614 798 m 6 X s 1620 792 m 13 Y s 1614 798 m 12 Y s 1607 810 m 13 X
 s 1614 798 m -12 Y s 1607 786 m 13 X s 1627 775 m -7 X s 1620 768 m 13 Y s 1627 775 m 6 X s 1633 768 m 13 Y s 1627 775 m 13 Y s 1620 788 m 13 X s 1627 775 m -13 Y s 1620 762 m 13 X s 1640 750 m -7 X s 1633 744 m 13 Y s 1640 750 m 6 X s 1646 744 m 13
 Y s 1640 750 m 14 Y s 1633 764 m 13 X s 1640 750 m -14 Y s 1633 736 m 13 X s 1653 786 m -7 X s 1646 780 m 13 Y s 1653 786 m 6 X s 1659 780 m 13 Y s 1653 786 m 13 Y s 1646 799 m 13 X s 1653 786 m -13 Y s 1646 773 m 13 X s 1666 749 m -7 X s 1659 742 m
 13 Y s 1666 749 m 6 X s 1672 742 m 13 Y s 1666 749 m 14 Y s 1659 763 m 13 X s 1666 749 m -14 Y s 1659 735 m 13 X s 1679 741 m -7 X s 1672 734 m 13 Y s 1679 741 m 6 X s 1685 734 m 13 Y s 1679 741 m 14 Y s 1672 755 m 13 X s 1679 741 m -14 Y s 1672 727
 m 13 X s 1692 720 m -7 X s 1685 713 m 13 Y s 1692 720 m 6 X s 1698 713 m 13 Y s 1692 720 m 15 Y s 1685 735 m 13 X s 1692 720 m -15 Y s 1685 705 m 13 X s 1705 733 m -7 X s 1698 726 m 13 Y s 1705 733 m 7 X s 1712 726 m 13 Y s 1705 733 m 14 Y s 1698
 747 m 14 X s 1705 733 m -15 Y s 1698 718 m 14 X s 1718 700 m -6 X s 1712 694 m 13 Y s 1718 700 m 7 X s 1725 694 m 13 Y s 1718 700 m 16 Y s 1712 716 m 13 X s 1718 700 m -16 Y s 1712 684 m 13 X s 1731 700 m -6 X s 1725 694 m 13 Y s 1731 700 m 7 X s
 1738 694 m 13 Y s 1731 700 m 16 Y s 1725 716 m 13 X s 1731 700 m -16 Y s 1725 684 m 13 X s 1770 682 m -6 X s 1764 676 m 12 Y s 1770 682 m 7 X s 1777 676 m 12 Y s 1770 682 m 16 Y s 1764 698 m 13 X s 1770 682 m -6 Y s 1764 676 m 13 X s /w 26 def /w2
 {w 2 div} def /w3 {w 3 div} def 233 1974 246 1992 259 1989 272 1982 285 1973 298 1963 311 1953 324 1942 337 1931 351 1919 364 1906 377 1897 390 1886 403 1874 416 1862 429 1852 442 1840 455 1829 468 1817 481 1806 494 1795 507 1785 520 1774 533 1761
 546 1749 559 1740 572 1728 585 1716 598 1704 611 1694 624 1681 637 1670 650 1659 663 1645 676 1635 689 1623 702 1613 715 1599 728 1590 741 1581 754 1568 767 1556 780 1545 793 1530 806 1520 819 1510 832 1495 845 1486 858 1477 871 1463 884 1454 898
 1437 911 1427 924 1414 937 1403 950 1392 963 1383 976 1371 989 1355 1002 1350 1015 1332 1028 1325 1041 1305 1054 1296 1067 1284 1080 1282 1093 1265 1106 1245 1119 1241 1132 1233 1145 1217 1158 1204 1171 1193 1184 1184 1197 1171 1210 1159 1223 1149
 1236 1136 1249 1127 1262 1113 1275 1091 1288 1082 1301 1078 1314 1061 1327 1053 1340 1045 1353 1032 1366 1024 1379 1009 1392 990 1405 983 1418 972 1431 966 1445 948 1458 934 1471 929 1484 909 1497 878 1510 897 1523 892 100 { m20} R 1536 852 1549 862
 1562 846 1575 837 1588 825 1601 816 1614 798 1627 775 1640 750 1653 786 1666 749 1679 741 1692 720 1705 733 1718 700 1731 700 16 { m20} R 1770 682 m20 0 0 1 c 9 lw black 0 0 1 c 227 1843 m cl s 227 1843 m 2 117 d 3 20 d 2 5 d 2 3 d 3 2 d 2 1 d 3 1 d
 7 X 5 -1 d 5 -2 d 4 -3 d 10 -6 d 10 -7 d 19 -14 d 19 -16 d 19 -17 d 20 -17 d 19 -16 d 19 -17 d 20 -16 d 19 -17 d 19 -17 d 19 -17 d 20 -16 d 19 -17 d 19 -17 d 19 -17 d 20 -17 d 19 -16 d 19 -17 d 20 -17 d 19 -17 d 19 -17 d 19 -17 d 20 -17 d 19 -17 d
 19 -17 d 19 -17 d 20 -17 d 19 -17 d 19 -18 d 20 -17 d 19 -17 d 19 -17 d 19 -17 d 20 -17 d 19 -18 d 19 -17 d 20 -17 d 19 -17 d 19 -18 d 19 -17 d 20 -17 d 19 -17 d 19 -18 d 19 -17 d 20 -17 d 19 -18 d 19 -17 d 20 -17 d 19 -18 d 19 -17 d 19 -17 d 20 -18
 d 19 -17 d 19 -17 d 19 -18 d 20 -17 d 19 -18 d 19 -17 d 20 -17 d 19 -18 d 19 -17 d 19 -18 d 20 -17 d 19 -17 d 19 -18 d 20 -17 d 19 -17 d 19 -18 d 19 -17 d 20 -18 d 19 -17 d 19 -17 d 19 -18 d 20 -17 d 19 -17 d 19 -18 d 16 -14 d s black 3 lw 227 676 m
 1927 X s 461 715 m -39 Y s 526 695 m -19 Y s 591 695 m -19 Y s 657 695 m -19 Y s 722 715 m -39 Y s 787 695 m -19 Y s 852 695 m -19 Y s 917 695 m -19 Y s 982 715 m -39 Y s 1047 695 m -19 Y s 1112 695 m -19 Y s 1178 695 m -19 Y s 1243 715 m -39 Y s
 1308 695 m -19 Y s 1373 695 m -19 Y s 1438 695 m -19 Y s 1503 715 m -39 Y s 1568 695 m -19 Y s 1633 695 m -19 Y s 1698 695 m -19 Y s 1764 715 m -39 Y s 1829 695 m -19 Y s 1894 695 m -19 Y s 1959 695 m -19 Y s 2024 715 m -39 Y s 461 715 m -39 Y s 396
 695 m -19 Y s 331 695 m -19 Y s 266 695 m -19 Y s 2024 715 m -39 Y s 2089 695 m -19 Y s 2154 695 m -19 Y s 227 676 m 1325 Y s 256 792 m -29 X s 256 863 m -29 X s 256 913 m -29 X s 256 952 m -29 X s 256 984 m -29 X s 256 1011 m -29 X s 256 1034 m -29
 X s 256 1054 m -29 X s 285 1073 m -58 X s 256 1194 m -29 X s 256 1264 m -29 X s 256 1315 m -29 X s 256 1353 m -29 X s 256 1385 m -29 X s 256 1412 m -29 X s 256 1435 m -29 X s 256 1456 m -29 X s 285 1474 m -58 X s 256 1595 m -29 X s 256 1666 m -29 X
 s 256 1716 m -29 X s 256 1755 m -29 X s 256 1787 m -29 X s 256 1814 m -29 X s 256 1837 m -29 X s 256 1857 m -29 X s 285 1876 m -58 X s 256 1997 m -29 X s 1 1 1 c black
 gsave  2268 1559 0 520 C 729.84 2000.54 t 0 r /Helvetica findfont 78.2789 sf 0 0 m (A RooPlot of "time [ps]") show NC gr  1 1 1 c 2268 520 0 0 bf black 1 1 1 c 1927 364 227 104 bf black 1927 364 227 104 bl 1 1 1 c 1927 364 227 104 bf black 1927 364
 227 104 bl 227 104 m 1927 X s 461 117 m -13 Y s 526 111 m -7 Y s 591 111 m -7 Y s 657 111 m -7 Y s 722 117 m -13 Y s 787 111 m -7 Y s 852 111 m -7 Y s 917 111 m -7 Y s 982 117 m -13 Y s 1047 111 m -7 Y s 1112 111 m -7 Y s 1178 111 m -7 Y s 1243 117
 m -13 Y s 1308 111 m -7 Y s 1373 111 m -7 Y s 1438 111 m -7 Y s 1503 117 m -13 Y s 1568 111 m -7 Y s 1633 111 m -7 Y s 1698 111 m -7 Y s 1764 117 m -13 Y s 1829 111 m -7 Y s 1894 111 m -7 Y s 1959 111 m -7 Y s 2024 117 m -13 Y s 461 117 m -13 Y s
 396 111 m -7 Y s 331 111 m -7 Y s 266 111 m -7 Y s 2024 117 m -13 Y s 2089 111 m -7 Y s 2154 111 m -7 Y s
 gsave  2268 520 0 0 C 436.601 29.3239 t 0 r /Helvetica findfont 88.2484 sf 0 0 m (2) show NC gr 
 gsave  2268 520 0 0 C 693.999 29.3239 t 0 r /Helvetica findfont 88.2484 sf 0 0 m (4) show NC gr 
 gsave  2268 520 0 0 C 957.915 29.3239 t 0 r /Helvetica findfont 88.2484 sf 0 0 m (6) show NC gr 
 gsave  2268 520 0 0 C 1218.57 29.3239 t 0 r /Helvetica findfont 88.2484 sf 0 0 m (8) show NC gr 
 gsave  2268 520 0 0 C 1453.16 29.3239 t 0 r /Helvetica findfont 88.2484 sf 0 0 m (10) show NC gr 
 gsave  2268 520 0 0 C 1713.82 29.3239 t 0 r /Helvetica findfont 88.2484 sf 0 0 m (12) show NC gr 
 gsave  2268 520 0 0 C 1974.48 29.3239 t 0 r /Helvetica findfont 88.2484 sf 0 0 m (14) show NC gr  227 104 m 364 Y s 274 104 m -47 X s 251 140 m -24 X s 251 177 m -24 X s 251 213 m -24 X s 251 249 m -24 X s 274 286 m -47 X s 251 322 m -24 X s 251 359
 m -24 X s 251 395 m -24 X s 251 431 m -24 X s 274 468 m -47 X s
 gsave  2268 520 0 0 C 169.427 71.6807 t 0 r /Helvetica findfont 88.2484 sf 0 0 m (5) show NC gr 
 gsave  2268 520 0 0 C 120.554 71.6807 t 0 r /Symbol findfont 88.2484 sf 0 0 m (-) show NC gr 
 gsave  2268 520 0 0 C 169.427 254.141 t 0 r /Helvetica findfont 88.2484 sf 0 0 m (0) show NC gr 
 gsave  2268 520 0 0 C 169.427 436.601 t 0 r /Helvetica findfont 88.2484 sf 0 0 m (5) show NC gr  246 248 m 37 Y s 240 285 m 13 X s 246 248 m -36 Y s 240 212 m 13 X s 259 242 m 37 Y s 253 279 m 13 X s 259 242 m -36 Y s 253 206 m 13 X s 272 323 m 37 Y
 s 266 360 m 13 X s 272 323 m -36 Y s 266 287 m 13 X s 285 296 m 36 Y s 279 332 m 13 X s 285 296 m -37 Y s 279 259 m 13 X s 298 267 m 37 Y s 292 304 m 13 X s 298 267 m -36 Y s 292 231 m 13 X s 311 290 m 37 Y s 305 327 m 13 X s 311 290 m -36 Y s 305
 254 m 13 X s 324 361 m 37 Y s 318 398 m 13 X s 324 361 m -36 Y s 318 325 m 13 X s 337 306 m 36 Y s 331 342 m 13 X s 337 306 m -36 Y s 331 270 m 13 X s 351 263 m 36 Y s 344 299 m 13 X s 351 263 m -36 Y s 344 227 m 13 X s 364 165 m 36 Y s 357 201 m 13
 X s 364 165 m -36 Y s 357 129 m 13 X s 377 277 m 36 Y s 370 313 m 13 X s 377 277 m -36 Y s 370 241 m 13 X s 390 312 m 37 Y s 383 349 m 13 X s 390 312 m -36 Y s 383 276 m 13 X s 403 242 m 36 Y s 396 278 m 13 X s 403 242 m -36 Y s 396 206 m 13 X s 416
 209 m 37 Y s 409 246 m 13 X s 416 209 m -36 Y s 409 173 m 13 X s 429 279 m 37 Y s 422 316 m 13 X s 429 279 m -36 Y s 422 243 m 13 X s 442 243 m 36 Y s 435 279 m 13 X s 442 243 m -36 Y s 435 207 m 13 X s 455 280 m 36 Y s 448 316 m 13 X s 455 280 m
 -36 Y s 448 244 m 13 X s 468 238 m 36 Y s 461 274 m 13 X s 468 238 m -36 Y s 461 202 m 13 X s 481 278 m 37 Y s 474 315 m 13 X s 481 278 m -36 Y s 474 242 m 13 X s 494 246 m 36 Y s 487 282 m 13 X s 494 246 m -36 Y s 487 210 m 13 X s 507 359 m 37 Y s
 500 396 m 13 X s 507 359 m -36 Y s 500 323 m 13 X s 520 346 m 36 Y s 513 382 m 13 X s 520 346 m -37 Y s 513 309 m 13 X s 533 298 m 36 Y s 526 334 m 13 X s 533 298 m -37 Y s 526 261 m 13 X s 546 230 m 37 Y s 539 267 m 13 X s 546 230 m -36 Y s 539 194
 m 13 X s 559 361 m 36 Y s 552 397 m 13 X s 559 361 m -36 Y s 552 325 m 13 X s 572 314 m 36 Y s 565 350 m 13 X s 572 314 m -37 Y s 565 277 m 13 X s 585 277 m 37 Y s 578 314 m 13 X s 585 277 m -36 Y s 578 241 m 13 X s 598 274 m 36 Y s 591 310 m 13 X s
 598 274 m -36 Y s 591 238 m 13 X s 611 324 m 36 Y s 604 360 m 13 X s 611 324 m -37 Y s 604 287 m 13 X s 624 254 m 36 Y s 617 290 m 14 X s 624 254 m -36 Y s 617 218 m 14 X s 637 291 m 36 Y s 631 327 m 13 X s 637 291 m -37 Y s 631 254 m 13 X s 650 293
 m 36 Y s 644 329 m 13 X s 650 293 m -37 Y s 644 256 m 13 X s 663 209 m 36 Y s 657 245 m 13 X s 663 209 m -36 Y s 657 173 m 13 X s 676 261 m 36 Y s 670 297 m 13 X s 676 261 m -36 Y s 670 225 m 13 X s 689 260 m 37 Y s 683 297 m 13 X s 689 260 m -36 Y
 s 683 224 m 13 X s 702 301 m 37 Y s 696 338 m 13 X s 702 301 m -36 Y s 696 265 m 13 X s 715 230 m 37 Y s 709 267 m 13 X s 715 230 m -36 Y s 709 194 m 13 X s 728 311 m 37 Y s 722 348 m 13 X s 728 311 m -36 Y s 722 275 m 13 X s 741 357 m 37 Y s 735
 394 m 13 X s 741 357 m -37 Y s 735 320 m 13 X s 754 326 m 37 Y s 748 363 m 13 X s 754 326 m -36 Y s 748 290 m 13 X s 767 302 m 36 Y s 761 338 m 13 X s 767 302 m -37 Y s 761 265 m 13 X s 780 314 m 37 Y s 774 351 m 13 X s 780 314 m -36 Y s 774 278 m
 13 X s 793 225 m 37 Y s 787 262 m 13 X s 793 225 m -36 Y s 787 189 m 13 X s 806 264 m 37 Y s 800 301 m 13 X s 806 264 m -36 Y s 800 228 m 13 X s 819 316 m 37 Y s 813 353 m 13 X s 819 316 m -36 Y s 813 280 m 13 X s 832 235 m 37 Y s 826 272 m 13 X s
 832 235 m -36 Y s 826 199 m 13 X s 845 298 m 36 Y s 839 334 m 13 X s 845 298 m -37 Y s 839 261 m 13 X s 858 334 m 36 Y s 852 370 m 13 X s 858 334 m -37 Y s 852 297 m 13 X s 871 286 m 36 Y s 865 322 m 13 X s 871 286 m -36 Y s 865 250 m 13 X s 884 353
 m 37 Y s 878 390 m 13 X s 884 353 m -36 Y s 878 317 m 13 X s 898 247 m 36 Y s 891 283 m 13 X s 898 247 m -36 Y s 891 211 m 13 X s 911 273 m 37 Y s 904 310 m 13 X s 911 273 m -36 Y s 904 237 m 13 X s 924 248 m 36 Y s 917 284 m 13 X s 924 248 m -36 Y
 s 917 212 m 13 X s 937 254 m 37 Y s 930 291 m 13 X s 937 254 m -36 Y s 930 218 m 13 X s 950 276 m 36 Y s 943 312 m 13 X s 950 276 m -36 Y s 943 240 m 13 X s 963 316 m 37 Y s 956 353 m 13 X s 963 316 m -36 Y s 956 280 m 13 X s 976 305 m 37 Y s 969
 342 m 13 X s 976 305 m -37 Y s 969 268 m 13 X s 989 244 m 37 Y s 982 281 m 13 X s 989 244 m -36 Y s 982 208 m 13 X s 1002 345 m 37 Y s 995 382 m 13 X s 1002 345 m -36 Y s 995 309 m 13 X s 1015 248 m 36 Y s 1008 284 m 13 X s 1015 248 m -36 Y s 1008
 212 m 13 X s 1028 310 m 37 Y s 1021 347 m 13 X s 1028 310 m -36 Y s 1021 274 m 13 X s 1041 208 m 36 Y s 1034 244 m 13 X s 1041 208 m -36 Y s 1034 172 m 13 X s 1054 243 m 37 Y s 1047 280 m 13 X s 1054 243 m -35 Y s 1047 208 m 13 X s 1067 231 m 37 Y s
 1060 268 m 13 X s 1067 231 m -35 Y s 1060 196 m 13 X s 1080 357 m 37 Y s 1073 394 m 13 X s 1080 357 m -36 Y s 1073 321 m 13 X s 1093 293 m 37 Y s 1086 330 m 13 X s 1093 293 m -37 Y s 1086 256 m 13 X s 1106 196 m 36 Y s 1099 232 m 13 X s 1106 196 m
 -36 Y s 1099 160 m 13 X s 1119 282 m 36 Y s 1112 318 m 13 X s 1119 282 m -36 Y s 1112 246 m 13 X s 1132 319 m 37 Y s 1125 356 m 13 X s 1132 319 m -37 Y s 1125 282 m 13 X s 1145 277 m 36 Y s 1138 313 m 13 X s 1145 277 m -36 Y s 1138 241 m 13 X s 1158
 269 m 36 Y s 1151 305 m 14 X s 1158 269 m -36 Y s 1151 233 m 14 X s 1171 274 m 36 Y s 1164 310 m 14 X s 1171 274 m -36 Y s 1164 238 m 14 X s 1184 296 m 37 Y s 1178 333 m 13 X s 1184 296 m -37 Y s 1178 259 m 13 X s 1197 289 m 37 Y s 1191 326 m 13 X s
 1197 289 m -36 Y s 1191 253 m 13 X s 1210 288 m 37 Y s 1204 325 m 13 X s 1210 288 m -36 Y s 1204 252 m 13 X s 1223 297 m 37 Y s 1217 334 m 13 X s 1223 297 m -36 Y s 1217 261 m 13 X s 1236 286 m 36 Y s 1230 322 m 13 X s 1236 286 m -36 Y s 1230 250 m
 13 X s 1249 310 m 38 Y s 1243 348 m 13 X s 1249 310 m -36 Y s 1243 274 m 13 X s 1262 290 m 37 Y s 1256 327 m 13 X s 1262 290 m -37 Y s 1256 253 m 13 X s 1275 215 m 36 Y s 1269 251 m 13 X s 1275 215 m -35 Y s 1269 180 m 13 X s 1288 238 m 36 Y s 1282
 274 m 13 X s 1288 238 m -36 Y s 1282 202 m 13 X s 1301 289 m 38 Y s 1295 327 m 13 X s 1301 289 m -36 Y s 1295 253 m 13 X s 1314 256 m 36 Y s 1308 292 m 13 X s 1314 256 m -35 Y s 1308 221 m 13 X s 1327 280 m 36 Y s 1321 316 m 13 X s 1327 280 m -36 Y
 s 1321 244 m 13 X s 1340 302 m 38 Y s 1334 340 m 13 X s 1340 302 m -37 Y s 1334 265 m 13 X s 1353 296 m 38 Y s 1347 334 m 13 X s 1353 296 m -36 Y s 1347 260 m 13 X s 1366 317 m 38 Y s 1360 355 m 13 X s 1366 317 m -36 Y s 1360 281 m 13 X s 1379 298 m
 38 Y s 1373 336 m 13 X s 1379 298 m -36 Y s 1373 262 m 13 X s 1392 260 m 37 Y s 1386 297 m 13 X s 1392 260 m -35 Y s 1386 225 m 13 X s 1405 286 m 38 Y s 1399 324 m 13 X s 1405 286 m -36 Y s 1399 250 m 13 X s 1418 287 m 38 Y s 1412 325 m 13 X s 1418
 287 m -36 Y s 1412 251 m 13 X s 1431 315 m 38 Y s 1425 353 m 13 X s 1431 315 m -36 Y s 1425 279 m 13 X s 1445 285 m 36 Y s 1438 321 m 13 X s 1445 285 m -35 Y s 1438 250 m 13 X s 1458 278 m 36 Y s 1451 314 m 13 X s 1458 278 m -35 Y s 1451 243 m 13 X
 s 1471 307 m 38 Y s 1464 345 m 13 X s 1471 307 m -37 Y s 1464 270 m 13 X s 1484 271 m 37 Y s 1477 308 m 13 X s 1484 271 m -34 Y s 1477 237 m 13 X s 1497 198 m 36 Y s 1490 234 m 13 X s 1497 198 m -35 Y s 1490 163 m 13 X s 1510 317 m 38 Y s 1503 355 m
 13 X s 1510 317 m -36 Y s 1503 281 m 13 X s 1523 341 m 38 Y s 1516 379 m 13 X s 1523 341 m -36 Y s 1516 305 m 13 X s 1536 236 m 36 Y s 1529 272 m 13 X s 1536 236 m -35 Y s 1529 201 m 13 X s 1549 316 m 38 Y s 1542 354 m 13 X s 1549 316 m -37 Y s 1542
 279 m 13 X s 1562 301 m 38 Y s 1555 339 m 13 X s 1562 301 m -37 Y s 1555 264 m 13 X s 1575 309 m 39 Y s 1568 348 m 13 X s 1575 309 m -36 Y s 1568 273 m 13 X s 1588 305 m 39 Y s 1581 344 m 13 X s 1588 305 m -36 Y s 1581 269 m 13 X s 1601 314 m 39 Y s
 1594 353 m 13 X s 1601 314 m -37 Y s 1594 277 m 13 X s 1614 295 m 39 Y s 1607 334 m 13 X s 1614 295 m -36 Y s 1607 259 m 13 X s 1627 261 m 37 Y s 1620 298 m 13 X s 1627 261 m -33 Y s 1620 228 m 13 X s 1640 227 m 37 Y s 1633 264 m 13 X s 1640 227 m
 -33 Y s 1633 194 m 13 X s 1653 359 m 39 Y s 1646 398 m 13 X s 1653 359 m -37 Y s 1646 322 m 13 X s 1666 287 m 40 Y s 1659 327 m 13 X s 1666 287 m -36 Y s 1659 251 m 13 X s 1679 297 m 39 Y s 1672 336 m 13 X s 1679 297 m -36 Y s 1672 261 m 13 X s 1692
 274 m 37 Y s 1685 311 m 13 X s 1692 274 m -33 Y s 1685 241 m 13 X s 1705 333 m 40 Y s 1698 373 m 14 X s 1705 333 m -36 Y s 1698 297 m 14 X s 1718 283 m 37 Y s 1712 320 m 13 X s 1718 283 m -33 Y s 1712 250 m 13 X s 1731 311 m 39 Y s 1725 350 m 13 X s
 1731 311 m -37 Y s 1725 274 m 13 X s 1744 249 m 36 Y s 1738 285 m 13 X s 1744 249 m -33 Y s 1738 216 m 13 X s 1757 296 m 41 Y s 1751 337 m 13 X s 1757 296 m -36 Y s 1751 260 m 13 X s 1770 343 m 40 Y s 1764 383 m 13 X s 1770 343 m -37 Y s 1764 306 m
 13 X s 1783 276 m 36 Y s 1777 312 m 13 X s 1783 276 m -33 Y s 1777 243 m 13 X s 1796 320 m 40 Y s 1790 360 m 13 X s 1796 320 m -37 Y s 1790 283 m 13 X s 1809 285 m 37 Y s 1803 322 m 13 X s 1809 285 m -32 Y s 1803 253 m 13 X s 1822 273 m 36 Y s 1816
 309 m 13 X s 1822 273 m -32 Y s 1816 241 m 13 X s 1835 291 m 41 Y s 1829 332 m 13 X s 1835 291 m -36 Y s 1829 255 m 13 X s 1848 271 m 36 Y s 1842 307 m 13 X s 1848 271 m -32 Y s 1842 239 m 13 X s 1861 279 m 36 Y s 1855 315 m 13 X s 1861 279 m -32 Y
 s 1855 247 m 13 X s 1874 356 m 41 Y s 1868 397 m 13 X s 1874 356 m -36 Y s 1868 320 m 13 X s 1887 318 m 41 Y s 1881 359 m 13 X s 1887 318 m -37 Y s 1881 281 m 13 X s 1900 265 m 37 Y s 1894 302 m 13 X s 1900 265 m -31 Y s 1894 234 m 13 X s 1913 270 m
 36 Y s 1907 306 m 13 X s 1913 270 m -31 Y s 1907 239 m 13 X s 1926 284 m 36 Y s 1920 320 m 13 X s 1926 284 m -31 Y s 1920 253 m 13 X s 1939 282 m 36 Y s 1933 318 m 13 X s 1939 282 m -31 Y s 1933 251 m 13 X s 1952 268 m 36 Y s 1946 304 m 13 X s 1952
 268 m -31 Y s 1946 237 m 13 X s 1965 275 m 36 Y s 1959 311 m 13 X s 1965 275 m -31 Y s 1959 244 m 13 X s 1979 230 m 36 Y s 1972 266 m 13 X s 1979 230 m -30 Y s 1972 200 m 13 X s 1992 293 m 44 Y s 1985 337 m 13 X s 1992 293 m -36 Y s 1985 257 m 13 X
 s 2005 312 m 44 Y s 1998 356 m 13 X s 2005 312 m -36 Y s 1998 276 m 13 X s 2018 228 m 37 Y s 2011 265 m 13 X s 2018 228 m -28 Y s 2011 200 m 13 X s 2031 269 m 37 Y s 2024 306 m 13 X s 2031 269 m -29 Y s 2024 240 m 13 X s 2044 300 m 45 Y s 2037 345 m
 13 X s 2044 300 m -36 Y s 2037 264 m 13 X s 2057 261 m 36 Y s 2050 297 m 13 X s 2057 261 m -29 Y s 2050 232 m 13 X s 2070 292 m 45 Y s 2063 337 m 13 X s 2070 292 m -37 Y s 2063 255 m 13 X s 2083 310 m 45 Y s 2076 355 m 13 X s 2083 310 m -37 Y s 2076
 273 m 13 X s 2096 228 m 36 Y s 2089 264 m 13 X s 2096 228 m -27 Y s 2089 201 m 13 X s 2109 256 m 36 Y s 2102 292 m 13 X s 2109 256 m -27 Y s 2102 229 m 13 X s 2122 273 m 36 Y s 2115 309 m 13 X s 2122 273 m -28 Y s 2115 245 m 13 X s 2135 298 m 47 Y s
 2128 345 m 13 X s 2135 298 m -37 Y s 2128 261 m 13 X s 2148 334 m 46 Y s 2141 380 m 13 X s 2148 334 m -36 Y s 2141 298 m 13 X s 246 248 259 242 272 323 285 296 298 267 311 290 324 361 337 306 351 263 364 165 377 277 390 312 403 242 416 209 429 279
 442 243 455 280 468 238 481 278 494 246 507 359 520 346 533 298 546 230 559 361 572 314 585 277 598 274 611 324 624 254 637 291 650 293 663 209 676 261 689 260 702 301 715 230 728 311 741 357 754 326 767 302 780 314 793 225 806 264 819 316 832 235
 845 298 858 334 871 286 884 353 898 247 911 273 924 248 937 254 950 276 963 316 976 305 989 244 1002 345 1015 248 1028 310 1041 208 1054 243 1067 231 1080 357 1093 293 1106 196 1119 282 1132 319 1145 277 1158 269 1171 274 1184 296 1197 289 1210 288
 1223 297 1236 286 1249 310 1262 290 1275 215 1288 238 1301 289 1314 256 1327 280 1340 302 1353 296 1366 317 1379 298 1392 260 1405 286 1418 287 1431 315 1445 285 1458 278 1471 307 1484 271 1497 198 1510 317 1523 341 1536 236 100 { m20} R 1549 316
 1562 301 1575 309 1588 305 1601 314 1614 295 1627 261 1640 227 1653 359 1666 287 1679 297 1692 274 1705 333 1718 283 1731 311 1744 249 1757 296 1770 343 1783 276 1796 320 1809 285 1822 273 1835 291 1848 271 1861 279 1874 356 1887 318 1900 265 1913
 270 1926 284 1939 282 1952 268 1965 275 1979 230 1992 293 2005 312 2018 228 2031 269 2044 300 2057 261 2070 292 2083 310 2096 228 2109 256 2122 273 2135 298 2148 334 47 { m20} R 227 104 m 1927 X s 461 117 m -13 Y s 526 111 m -7 Y s 591 111 m -7 Y s
 657 111 m -7 Y s 722 117 m -13 Y s 787 111 m -7 Y s 852 111 m -7 Y s 917 111 m -7 Y s 982 117 m -13 Y s 1047 111 m -7 Y s 1112 111 m -7 Y s 1178 111 m -7 Y s 1243 117 m -13 Y s 1308 111 m -7 Y s 1373 111 m -7 Y s 1438 111 m -7 Y s 1503 117 m -13 Y s
 1568 111 m -7 Y s 1633 111 m -7 Y s 1698 111 m -7 Y s 1764 117 m -13 Y s 1829 111 m -7 Y s 1894 111 m -7 Y s 1959 111 m -7 Y s 2024 117 m -13 Y s 461 117 m -13 Y s 396 111 m -7 Y s 331 111 m -7 Y s 266 111 m -7 Y s 2024 117 m -13 Y s 2089 111 m -7 Y
 s 2154 111 m -7 Y s 227 104 m 364 Y s 274 104 m -47 X s 251 140 m -24 X s 251 177 m -24 X s 251 213 m -24 X s 251 249 m -24 X s 274 286 m -47 X s 251 322 m -24 X s 251 359 m -24 X s 251 395 m -24 X s 251 431 m -24 X s 274 468 m -47 X s[ 4 8] 0 sd 1
 1 1 c black
 gsave  2268 520 0 0 C 1052.4 495.248 t 0 r /Helvetica findfont 22.8792 sf 0 0 m (Pull Distribution) show NC gr 
 gr  gr showpage
end
%%EOF
