{
    "Description:": "Contains the current polarity dependent baseline result from Tsinghua", 
    "ResultSetLabel": "Tsinghua-Run2", 
    "Parameter": [
        {
            "Name": "deltaPar", 
            "Value": 3.00604, 
            "Error": 0.09000
        }, 
        {
            "Name": "phisS", 
            "Value": 0.01815, 
            "Error": 0.04017
        }, 
        {
            "Name": "lambdapar", 
            "Value": 0.99761, 
            "Error": 0.08908
        }, 
        {
            "Name": "phisperp", 
            "Value": -0.17390, 
            "Error": 0.07358
        }, 
        {
            "Name": "DGs", 
            "Value": 0.08308, 
            "Error": 0.00821
        }, 
        {
            "Name": "deltaS1", 
            "Value": 2.36999, 
            "Error": 0.20320
        }, 
        {
            "Name": "deltaS2", 
            "Value": 1.68209, 
            "Error": 0.31566
        }, 
        {
            "Name": "deltaS3", 
            "Value": 1.13187, 
            "Error": 0.46905
        }, 
        {
            "Name": "lambda0", 
            "Value": 0.94095, 
            "Error": 0.04934
        }, 
        {
            "Name": "deltaS5", 
            "Value": -0.44408, 
            "Error": 0.11892
        }, 
        {
            "Name": "deltaS6", 
            "Value": -0.95292, 
            "Error": 0.18308
        }, 
        {
            "Name": "Dm", 
            "Value": 17.70760, 
            "Error": 0.06307
        }, 
        {
            "Name": "deltaS4", 
            "Value": -0.25975, 
            "Error": 0.28757
        }, 
        {
            "Name": "lambdaperp", 
            "Value": 1.39542, 
            "Error": 0.10713
        }, 
        {
            "Name": "A0", 
            "Value": 0.57700, 
            "Error": 0.01715
        }, 
        {
            "Name": "dp1os", 
            "Value": -0.00080, 
            "Error": 0.01524
        }, 
        {
            "Name": "dp0os", 
            "Value": 0.00653, 
            "Error": 0.00145
        }, 
        {
            "Name": "phispar", 
            "Value": -0.03099, 
            "Error": 0.05154
        }, 
        {
            "Name": "p1ss", 
            "Value": 0.81007, 
            "Error": 0.11009
        }, 
        {
            "Name": "p0ss", 
            "Value": 0.44823, 
            "Error": 0.00742
        }, 
        {
            "Name": "p1os", 
            "Value": 0.91370, 
            "Error": 0.01716
        }, 
        {
            "Name": "DGsd", 
            "Value": -0.00364, 
            "Error": 0.00249
        }, 
        {
            "Name": "p0os", 
            "Value": 0.38277, 
            "Error": 0.00227
        }, 
        {
            "Name": "deltaPerp", 
            "Value": 2.51075, 
            "Error": 0.16404
        }, 
        {
            "Name": "dp1ss", 
            "Value": 0.00881, 
            "Error": 0.01903
        }, 
        {
            "Name": "phis0", 
            "Value": -0.11415, 
            "Error": 0.04700
        }, 
        {
            "Name": "Aperp", 
            "Value": 0.17505, 
            "Error": 0.01954
        }, 
        {
            "Name": "dp0ss", 
            "Value": -0.01505, 
            "Error": 0.00399
        }, 
        {
            "Name": "FS1", 
            "Value": 0.43303, 
            "Error": 0.05947
        }, 
        {
            "Name": "FS2", 
            "Value": 0.03469, 
            "Error": 0.00951
        }, 
        {
            "Name": "FS3", 
            "Value": 0.00348, 
            "Error": 0.00232
        }, 
        {
            "Name": "FS4", 
            "Value": 0.00485, 
            "Error": 0.00598
        }, 
        {
            "Name": "FS5", 
            "Value": 0.05835, 
            "Error": 0.01760
        }, 
        {
            "Name": "FS6", 
            "Value": 0.11991, 
            "Error": 0.02372
        }, 
        {
            "Name": "lambdaS", 
            "Value": 1.18079, 
            "Error": 0.15663
        }
    ]
}